{
  "id": "056ad706-4cc4-4584-9e7b-889c748a04f3",
  "name": "Celebrity",
  "isOverridable": true,
  "entries": [
    {
      "value": "Jay-Z",
      "synonyms": [
        "Jay-Z"
      ]
    },
    {
      "value": "Drake",
      "synonyms": [
        "Drake"
      ]
    },
    {
      "value": "Kim Kardashian",
      "synonyms": [
        "Kim Kardashian"
      ]
    },
    {
      "value": "The Weeknd",
      "synonyms": [
        "The Weeknd"
      ]
    },
    {
      "value": "Justin Bieber",
      "synonyms": [
        "Justin Bieber"
      ]
    },
    {
      "value": "Selena Gomez",
      "synonyms": [
        "Selena Gomez"
      ]
    },
    {
      "value": "Taylor Swift",
      "synonyms": [
        "Taylor Swift"
      ]
    },
    {
      "value": "Katy Perry",
      "synonyms": [
        "Katy Perry"
      ]
    },
    {
      "value": "Adele",
      "synonyms": [
        "Adele"
      ]
    },
    {
      "value": "Cristiano Ronaldo",
      "synonyms": [
        "Cristiano Ronaldo"
      ]
    },
    {
      "value": "Lebron James",
      "synonyms": [
        "Lebron James"
      ]
    },
    {
      "value": "The Rock",
      "synonyms": [
        "The Rock"
      ]
    },
    {
      "value": "Rihanna",
      "synonyms": [
        "Rihanna"
      ]
    },
    {
      "value": "Lady Gaga",
      "synonyms": [
        "Lady Gaga"
      ]
    },
    {
      "value": "Roger Federer",
      "synonyms": [
        "Roger Federer"
      ]
    },
    {
      "value": "Kanye West",
      "synonyms": [
        "Kanye West"
      ]
    },
    {
      "value": "Jennifer Lawrence",
      "synonyms": [
        "Jennifer Lawrence"
      ]
    },
    {
      "value": "Chris Pratt",
      "synonyms": [
        "Chris Pratt"
      ]
    },
    {
      "value": "Ryan Gosling",
      "synonyms": [
        "Ryan Gosling"
      ]
    },
    {
      "value": "Chance the Rapper",
      "synonyms": [
        "Chance the Rapper"
      ]
    },
    {
      "value": "Lin Manuel-Miranda",
      "synonyms": [
        "Lin Manuel-Miranda"
      ]
    },
    {
      "value": "Kendall Jenner",
      "synonyms": [
        "Kendall Jenner"
      ]
    },
    {
      "value": "Khloe Kardashian",
      "synonyms": [
        "Khloe Kardashian"
      ]
    },
    {
      "value": "Rob Kardashian",
      "synonyms": [
        "Rob Kardashian"
      ]
    },
    {
      "value": "Zedd",
      "synonyms": [
        "Zedd"
      ]
    },
    {
      "value": "Nicki Minaj",
      "synonyms": [
        "Nicki Minaj"
      ]
    },
    {
      "value": "Kendrick Lamar",
      "synonyms": [
        "Kendrick Lamar"
      ]
    },
    {
      "value": "Ed Sheeren",
      "synonyms": [
        "Ed Sheeren"
      ]
    },
    {
      "value": "Diplo",
      "synonyms": [
        "Diplo"
      ]
    },
    {
      "value": "Kris Jenner",
      "synonyms": [
        "Kris Jenner"
      ]
    },
    {
      "value": "Brody Jenner",
      "synonyms": [
        "Brody Jenner"
      ]
    },
    {
      "value": "Future",
      "synonyms": [
        "Future"
      ]
    },
    {
      "value": "Bruno Mars",
      "synonyms": [
        "Bruno Mars"
      ]
    },
    {
      "value": "Miley Cyrus",
      "synonyms": [
        "Miley Cyrus"
      ]
    },
    {
      "value": "Stephan Curry",
      "synonyms": [
        "Stephan Curry"
      ]
    },
    {
      "value": "James Harden",
      "synonyms": [
        "James Harden"
      ]
    },
    {
      "value": "Drew Brees",
      "synonyms": [
        "Drew Brees"
      ]
    },
    {
      "value": "Sophia Vergara",
      "synonyms": [
        "Sophia Vergara"
      ]
    },
    {
      "value": "Kenny Chesney",
      "synonyms": [
        "Kenny Chesney"
      ]
    },
    {
      "value": "Luke Bryan",
      "synonyms": [
        "Luke Bryan"
      ]
    },
    {
      "value": "Steve Harvey",
      "synonyms": [
        "Steve Harvey"
      ]
    },
    {
      "value": "Amy Schumer",
      "synonyms": [
        "Amy Schumer"
      ]
    },
    {
      "value": "The Chain Smokers",
      "synonyms": [
        "The Chain Smokers"
      ]
    },
    {
      "value": "Tiger Woods",
      "synonyms": [
        "Tiger Woods"
      ]
    },
    {
      "value": "Florida Georgia Line",
      "synonyms": [
        "Florida Georgia Line"
      ]
    },
    {
      "value": "Usain Bolt",
      "synonyms": [
        "Usain Bolt"
      ]
    },
    {
      "value": "Jordan Spieth",
      "synonyms": [
        "Jordan Spieth"
      ]
    },
    {
      "value": "Connor McGregor",
      "synonyms": [
        "Connor McGregor"
      ]
    },
    {
      "value": "Kevin Hart",
      "synonyms": [
        "Kevin Hart"
      ]
    },
    {
      "value": "Fletcher Cox",
      "synonyms": [
        "Fletcher Cox"
      ]
    },
    {
      "value": "Ariana Grande",
      "synonyms": [
        "Ariana Grande"
      ]
    },
    {
      "value": "Shawn Mendes",
      "synonyms": [
        "Shawn Mendes"
      ]
    },
    {
      "value": "Barack Obama",
      "synonyms": [
        "Barack Obama"
      ]
    },
    {
      "value": "Harry Styles",
      "synonyms": [
        "Harry Styles"
      ]
    },
    {
      "value": "Jon Cena",
      "synonyms": [
        "Jon Cena"
      ]
    },
    {
      "value": "Zayn",
      "synonyms": [
        "Zayn"
      ]
    },
    {
      "value": "Niall Horan",
      "synonyms": [
        "Niall Horan"
      ]
    },
    {
      "value": "One Direction",
      "synonyms": [
        "One Direction"
      ]
    },
    {
      "value": "Meghan Trainor",
      "synonyms": [
        "Meghan Trainor"
      ]
    },
    {
      "value": "Demi Lovato",
      "synonyms": [
        "Demi Lovato"
      ]
    },
    {
      "value": "Fetty Wap",
      "synonyms": [
        "Fetty Wap"
      ]
    },
    {
      "value": "Tyler Oakley",
      "synonyms": [
        "Tyler Oakley"
      ]
    },
    {
      "value": "Gigi Hadid",
      "synonyms": [
        "Gigi Hadid"
      ]
    },
    {
      "value": "Christina Grimmie",
      "synonyms": [
        "Christina Grimmie"
      ]
    },
    {
      "value": "Emma Stone",
      "synonyms": [
        "Emma Stone"
      ]
    },
    {
      "value": "Blake Livley",
      "synonyms": [
        "Blake Livley"
      ]
    },
    {
      "value": "Megan Fox",
      "synonyms": [
        "Megan Fox"
      ]
    },
    {
      "value": "Amber Heard",
      "synonyms": [
        "Amber Heard"
      ]
    },
    {
      "value": "Ryan Reynolds",
      "synonyms": [
        "Ryan Reynolds"
      ]
    },
    {
      "value": "Mark Zuckerberg",
      "synonyms": [
        "Mark Zuckerberg"
      ]
    },
    {
      "value": "Coldplay",
      "synonyms": [
        "Coldplay"
      ]
    },
    {
      "value": "Tom Hiddleson",
      "synonyms": [
        "Tom Hiddleson"
      ]
    },
    {
      "value": "Kesha",
      "synonyms": [
        "Kesha"
      ]
    },
    {
      "value": "Paula Abdule",
      "synonyms": [
        "Paula Abdule"
      ]
    }
  ],
  "isEnum": true,
  "automatedExpansion": false
}