{
  "id": "64929a61-c090-4f14-858a-3b57cd0ebabc",
  "name": "EightiesTech",
  "isOverridable": true,
  "entries": [
    {
      "value": "Atari",
      "synonyms": [
        "Atari"
      ]
    },
    {
      "value": "Comador",
      "synonyms": [
        "Comador"
      ]
    },
    {
      "value": "Armatron",
      "synonyms": [
        "Armatron"
      ]
    },
    {
      "value": "Walkman",
      "synonyms": [
        "Walkman"
      ]
    },
    {
      "value": "Speak \u0026 Spell",
      "synonyms": [
        "Speak \u0026 Spell"
      ]
    },
    {
      "value": "Disposable Camera",
      "synonyms": [
        "Disposable Camera"
      ]
    },
    {
      "value": "Commodore 64",
      "synonyms": [
        "Commodore 64"
      ]
    },
    {
      "value": "Nikon F3",
      "synonyms": [
        "Nikon F3"
      ]
    }
  ],
  "isEnum": true,
  "automatedExpansion": false
}