{
  "id": "e24af7fc-328a-4c3d-9196-bb985483d105",
  "name": "Food",
  "isOverridable": true,
  "entries": [
    {
      "value": "Tacos",
      "synonyms": [
        "Tacos"
      ]
    },
    {
      "value": "Pizza",
      "synonyms": [
        "Pizza"
      ]
    },
    {
      "value": "Spagetti",
      "synonyms": [
        "Spagetti"
      ]
    },
    {
      "value": "Hamburgers",
      "synonyms": [
        "Hamburgers"
      ]
    },
    {
      "value": "Hotdogs",
      "synonyms": [
        "Hotdogs"
      ]
    },
    {
      "value": "Mexican Food",
      "synonyms": [
        "Mexican Food"
      ]
    },
    {
      "value": "Chips",
      "synonyms": [
        "Chips"
      ]
    },
    {
      "value": "Ice cream",
      "synonyms": [
        "Ice cream"
      ]
    }
  ],
  "isEnum": true,
  "automatedExpansion": false
}