{
  "id": "503bf80f-2473-44f0-b685-c5910cd9e339",
  "name": "Movie",
  "isOverridable": true,
  "entries": [
    {
      "value": "Strange Things",
      "synonyms": [
        "Strange Things"
      ]
    },
    {
      "value": "Orange Is The New Black",
      "synonyms": [
        "Orange Is The New Black"
      ]
    },
    {
      "value": "Legion",
      "synonyms": [
        "Legion"
      ]
    },
    {
      "value": "Stranger Things",
      "synonyms": [
        "Stranger Things"
      ]
    }
  ],
  "isEnum": true,
  "automatedExpansion": false
}