{
  "id": "6d032384-d936-4989-b40f-2f928566af46",
  "name": "NinetiesTVShow",
  "isOverridable": true,
  "entries": [
    {
      "value": "Seinfeld",
      "synonyms": [
        "Seinfeld"
      ]
    },
    {
      "value": "Friends",
      "synonyms": [
        "Friends"
      ]
    },
    {
      "value": "The Fresh Prince",
      "synonyms": [
        "The Fresh Prince"
      ]
    },
    {
      "value": "Full House",
      "synonyms": [
        "Full House",
        "Full house"
      ]
    },
    {
      "value": "Roseanne",
      "synonyms": [
        "Roseanne"
      ]
    },
    {
      "value": "The Simpsons",
      "synonyms": [
        "The Simpsons"
      ]
    },
    {
      "value": "Home Improvement",
      "synonyms": [
        "Home Improvement",
        "Home improvement"
      ]
    },
    {
      "value": "Family Matters",
      "synonyms": [
        "Family Matters"
      ]
    },
    {
      "value": "Martin",
      "synonyms": [
        "Martin"
      ]
    },
    {
      "value": "The Nanny",
      "synonyms": [
        "The Nanny",
        "The nanny"
      ]
    },
    {
      "value": "SNL",
      "synonyms": [
        "SNL",
        "Saturday Night Live"
      ]
    },
    {
      "value": "Moesha",
      "synonyms": [
        "Moesha"
      ]
    },
    {
      "value": "Blossom",
      "synonyms": [
        "Blossom"
      ]
    },
    {
      "value": "Spin City",
      "synonyms": [
        "Spin City"
      ]
    },
    {
      "value": "Boy Meets world",
      "synonyms": [
        "Boy Meets world"
      ]
    },
    {
      "value": "Saved By The Bell",
      "synonyms": [
        "Saved By The Bell"
      ]
    },
    {
      "value": "Baywatch",
      "synonyms": [
        "Baywatch"
      ]
    },
    {
      "value": "Twin Peaks",
      "synonyms": [
        "Twin Peaks"
      ]
    },
    {
      "value": "Dawson\u0027s Creek",
      "synonyms": [
        "Dawson\u0027s Creek"
      ]
    },
    {
      "value": "ER",
      "synonyms": [
        "ER"
      ]
    },
    {
      "value": "90210",
      "synonyms": [
        "90210"
      ]
    },
    {
      "value": "My So Called Life",
      "synonyms": [
        "My So Called Life"
      ]
    },
    {
      "value": "Party of Five",
      "synonyms": [
        "Party of Five",
        "party of 5"
      ]
    },
    {
      "value": "7th Heaven",
      "synonyms": [
        "7th Heaven"
      ]
    },
    {
      "value": "Ally McBeal",
      "synonyms": [
        "Ally McBeal"
      ]
    },
    {
      "value": "Murder She Wrote",
      "synonyms": [
        "Murder She Wrote"
      ]
    },
    {
      "value": "Melrose Place",
      "synonyms": [
        "Melrose Place"
      ]
    },
    {
      "value": "Babylon 5",
      "synonyms": [
        "Babylon 5"
      ]
    },
    {
      "value": "Star Trek",
      "synonyms": [
        "Star Trek: The Next Generation",
        "Deep Space Nine",
        "Next Generation",
        "Star Trek:The Next Generation"
      ]
    },
    {
      "value": "Quantum Leap",
      "synonyms": [
        "Quantum Leap"
      ]
    },
    {
      "value": "Tales from the Crypt",
      "synonyms": [
        "Tales from the Crypt"
      ]
    },
    {
      "value": "Sliders",
      "synonyms": [
        "Sliders"
      ]
    },
    {
      "value": "Stargate SG1",
      "synonyms": [
        "Stargate SG1"
      ]
    },
    {
      "value": "Dr Who",
      "synonyms": [
        "Dr Who"
      ]
    },
    {
      "value": "Star Trek: Deep Space Nine",
      "synonyms": [
        "Star Trek: Deep Space Nine"
      ]
    },
    {
      "value": "Seaquest",
      "synonyms": [
        "Seaquest"
      ]
    },
    {
      "value": "Dark Skies",
      "synonyms": [
        "Dark Skies"
      ]
    },
    {
      "value": "Farscape",
      "synonyms": [
        "Farscape"
      ]
    },
    {
      "value": "Party of 5",
      "synonyms": [
        "Party of 5"
      ]
    },
    {
      "value": "Will \u0026 Grace",
      "synonyms": [
        "Will \u0026 Grace",
        "Will and Grace",
        "will \u0026 grace",
        "Will \u0026 grace",
        "will and grace"
      ]
    },
    {
      "value": "Power Rangers",
      "synonyms": [
        "Power Rangers",
        "Mighty Morphin"
      ]
    },
    {
      "value": "Guts",
      "synonyms": [
        "Guts"
      ]
    },
    {
      "value": "Double Dare",
      "synonyms": [
        "Double Dare"
      ]
    },
    {
      "value": "Sabrina The Teenage Witch",
      "synonyms": [
        "Sabrina The Teenage Witch",
        "Sabrina"
      ]
    },
    {
      "value": "Arsenio Hall",
      "synonyms": [
        "Arsenio Hall"
      ]
    },
    {
      "value": "Dragon ball z",
      "synonyms": [
        "Dragon ball z"
      ]
    },
    {
      "value": "Rugrats",
      "synonyms": [
        "Rugrats"
      ]
    },
    {
      "value": "Pokemon",
      "synonyms": [
        "Pokemon"
      ]
    }
  ],
  "isEnum": false,
  "automatedExpansion": false
}