{
  "userSays": [
    {
      "id": "009cad09-c75b-43cd-aedf-4ee584bd3007",
      "data": [
        {
          "text": "sponsorship"
        }
      ],
      "isTemplate": false,
      "count": 0
    },
    {
      "id": "8b62a4a5-f742-45f5-b7d9-3f7eb9d93ff8",
      "data": [
        {
          "text": "Do you sponsor?"
        }
      ],
      "isTemplate": false,
      "count": 0
    },
    {
      "id": "4abaabb2-4acf-42ff-ae73-ffed22b8e231",
      "data": [
        {
          "text": "Would Zima sponsor my team?"
        }
      ],
      "isTemplate": false,
      "count": 0
    },
    {
      "id": "83282c40-86c7-496c-a28d-247eb544b861",
      "data": [
        {
          "text": "Would Zima sponsor my buisness?"
        }
      ],
      "isTemplate": false,
      "count": 0
    },
    {
      "id": "25153879-77b2-4c64-a87e-1b17208fb82f",
      "data": [
        {
          "text": "Would Zima sponsor my party?"
        }
      ],
      "isTemplate": false,
      "count": 0
    }
  ],
  "id": "26d09fbf-8064-4bf0-9256-bf392adf1d0f",
  "name": "Concern - Sponsor",
  "auto": true,
  "contexts": [],
  "responses": [
    {
      "resetContexts": true,
      "affectedContexts": [],
      "parameters": [],
      "messages": [
        {
          "type": 0,
          "speech": "Sorry, we don\u0027t have any individual sponsorships, but we really appreciate the love."
        }
      ]
    }
  ],
  "priority": 500000,
  "webhookUsed": false,
  "webhookForSlotFilling": false,
  "fallbackIntent": false,
  "events": []
}