{
  "userSays": [
    {
      "id": "cc31332c-cbea-48d4-a464-e5fec875e722",
      "data": [
        {
          "text": "stocked in soda aisle"
        }
      ],
      "isTemplate": false,
      "count": 0
    },
    {
      "id": "43cabaf4-645d-4774-88b1-55490305a018",
      "data": [
        {
          "text": "poor labeling"
        }
      ],
      "isTemplate": false,
      "count": 0
    },
    {
      "id": "c7a0dd03-84dc-4794-9b02-dfef88c0db00",
      "data": [
        {
          "text": "cracked bottle"
        }
      ],
      "isTemplate": false,
      "count": 0
    },
    {
      "id": "23eec22c-ef63-4ec3-b993-54abdc87248f",
      "data": [
        {
          "text": "crown different from label"
        }
      ],
      "isTemplate": false,
      "count": 0
    },
    {
      "id": "653fc840-6ce4-40d6-b86f-44937f030c5f",
      "data": [
        {
          "text": "two brands in package"
        }
      ],
      "isTemplate": false,
      "count": 0
    }
  ],
  "id": "0b13c47d-3b2b-43f2-8447-d083cf606601",
  "name": "Concern - Cracked",
  "auto": true,
  "contexts": [],
  "responses": [
    {
      "resetContexts": false,
      "affectedContexts": [],
      "parameters": [],
      "messages": [
        {
          "type": 0,
          "speech": "That doesn\u0027t look right. Give us a call at 1 800-MILLER-6 and we\u0027ll make it right"
        }
      ]
    }
  ],
  "priority": 500000,
  "webhookUsed": false,
  "webhookForSlotFilling": false,
  "fallbackIntent": false,
  "events": []
}