{
  "userSays": [
    {
      "id": "59486ada-0be2-48cb-85f8-fa9d0a8daf9c",
      "data": [
        {
          "text": "i\u0027m sick"
        }
      ],
      "isTemplate": false,
      "count": 0
    },
    {
      "id": "8bbfed73-bf42-4182-97d3-9d729f830eda",
      "data": [
        {
          "text": "I got sick"
        }
      ],
      "isTemplate": false,
      "count": 0
    },
    {
      "id": "635cfedd-ec89-4f38-a7b2-4b3ae130bb0b",
      "data": [
        {
          "text": "illness"
        }
      ],
      "isTemplate": false,
      "count": 0
    },
    {
      "id": "f97b3b36-1dd4-4d49-b292-4fa3291a3464",
      "data": [
        {
          "text": "I got an allergy"
        }
      ],
      "isTemplate": false,
      "count": 0
    },
    {
      "id": "a3a6b768-b2e5-42ba-80d2-d63a5ce28302",
      "data": [
        {
          "text": "injury"
        }
      ],
      "isTemplate": false,
      "count": 0
    },
    {
      "id": "b8e0cb11-a62c-4de3-94c9-2c520bf4524a",
      "data": [
        {
          "text": "allergic reaction"
        }
      ],
      "isTemplate": false,
      "count": 0
    },
    {
      "id": "4136ebda-521a-4fe4-a278-a986669c5461",
      "data": [
        {
          "text": "bug in bottle"
        }
      ],
      "isTemplate": false,
      "count": 0
    },
    {
      "id": "6d512970-5d8c-4334-a6a8-98f65aaba8e8",
      "data": [
        {
          "text": "foreign material"
        }
      ],
      "isTemplate": false,
      "count": 0
    }
  ],
  "id": "1f956c75-6468-4053-a256-1663afa73e0b",
  "name": "Concern - Sediment",
  "auto": true,
  "contexts": [],
  "responses": [
    {
      "resetContexts": false,
      "affectedContexts": [],
      "parameters": [],
      "messages": [
        {
          "type": 0,
          "speech": "Thank you for bringing this to our attention.  We take this issue very seriously. Please contact us at  1-800-645-5376 so we can properly escalate this issue."
        }
      ],
      "defaultResponsePlatforms": {
        "facebook": true
      }
    }
  ],
  "priority": 500000,
  "webhookUsed": false,
  "webhookForSlotFilling": false,
  "fallbackIntent": false,
  "events": []
}