{
  "userSays": [
    {
      "id": "5369005f-08c1-45f8-b059-4f743d92c83e",
      "data": [
        {
          "text": "I have a small gambling parlor / bar and would love to get some Zima while its available. Who can I get it through? My Bud family dist don\u0027t carry it, what about my Coors Dist??"
        }
      ],
      "isTemplate": false,
      "count": 0
    },
    {
      "id": "909ba06c-edb6-41eb-8972-618c0e0840e1",
      "data": [
        {
          "text": "I have some advertising ideas"
        }
      ],
      "isTemplate": false,
      "count": 0
    },
    {
      "id": "fe2a131a-2f40-45f1-ba28-cf774a7c9fdd",
      "data": [
        {
          "text": "i have an idea for zima"
        }
      ],
      "isTemplate": false,
      "count": 0
    },
    {
      "id": "5c74e4b1-0841-4c77-a965-eee461d90aed",
      "data": [
        {
          "text": "I have a pitch for zima"
        }
      ],
      "isTemplate": false,
      "count": 0
    },
    {
      "id": "8952245b-cd22-4905-af2b-381b9aee486f",
      "data": [
        {
          "text": "Providing advertising/product pitch"
        }
      ],
      "isTemplate": false,
      "count": 0
    }
  ],
  "id": "6f5b13b0-102c-4278-be5d-b529566842b8",
  "name": "Concern - Pitch",
  "auto": true,
  "contexts": [],
  "responses": [
    {
      "resetContexts": false,
      "affectedContexts": [],
      "parameters": [],
      "messages": [
        {
          "type": 0,
          "speech": "Thanks for thinking of us, but MillerCoors policy doesn\u0027t allow me to accept unsolicited marketing or product ideas."
        }
      ]
    }
  ],
  "priority": 500000,
  "webhookUsed": false,
  "webhookForSlotFilling": false,
  "fallbackIntent": false,
  "events": []
}