{
  "userSays": [
    {
      "id": "f4414075-d9ec-4491-ab47-529fb28144c0",
      "data": [
        {
          "text": "Get drunk",
          "userDefined": false
        }
      ],
      "isTemplate": false,
      "count": 0
    },
    {
      "id": "af3ba173-a203-42b4-8455-fb9e802b3106",
      "data": [
        {
          "text": "I\u0027m drunk"
        }
      ],
      "isTemplate": false,
      "count": 0
    },
    {
      "id": "887cd3ee-9056-4da1-868b-8b10ec6da8b4",
      "data": [
        {
          "text": "I\u0027m still drunk"
        }
      ],
      "isTemplate": false,
      "count": 0
    },
    {
      "id": "f7c9a059-31d0-4c97-9e49-7d4ca512b3cd",
      "data": [
        {
          "text": "Will you get me drunk?",
          "userDefined": false
        }
      ],
      "isTemplate": false,
      "count": 1
    },
    {
      "id": "338cdd8d-5d90-4fb2-b756-a7dd07b78f5f",
      "data": [
        {
          "text": "I want to get hammered!",
          "userDefined": false
        }
      ],
      "isTemplate": false,
      "count": 1
    },
    {
      "id": "fd85ea1c-96f6-40da-859b-db79d0036643",
      "data": [
        {
          "text": "I want to get smashed!",
          "userDefined": false
        }
      ],
      "isTemplate": false,
      "count": 1
    },
    {
      "id": "6dd8034e-e6c7-4c64-8da1-f017a9c6fcda",
      "data": [
        {
          "text": "hammered"
        }
      ],
      "isTemplate": false,
      "count": 0
    },
    {
      "id": "07c37ca4-3563-47a8-8bb7-97297c60c108",
      "data": [
        {
          "text": "drunk"
        }
      ],
      "isTemplate": false,
      "count": 0
    },
    {
      "id": "ea828d52-c03e-4a68-8bc9-9b156b8a3564",
      "data": [
        {
          "text": "i\u0027m wasted"
        }
      ],
      "isTemplate": false,
      "count": 0
    },
    {
      "id": "d19203a6-6811-4caf-ac93-fd64b5c29ddb",
      "data": [
        {
          "text": "I\u0027m so drunk"
        }
      ],
      "isTemplate": false,
      "count": 0
    },
    {
      "id": "02ff319b-ae86-49a1-bd99-3c029926db04",
      "data": [
        {
          "text": "I am drunk"
        }
      ],
      "isTemplate": false,
      "count": 0
    }
  ],
  "id": "fe398584-2c33-4655-bd75-a67c857b8f6d",
  "name": "Emergency - Drunk",
  "auto": true,
  "contexts": [],
  "responses": [
    {
      "resetContexts": false,
      "affectedContexts": [],
      "parameters": [],
      "messages": [
        {
          "type": 0,
          "speech": "MillerCoors encourages responsible drinking. We have established partnerships with alternative transportation companies including taxi services and Uber.  Please call 1-800-Taxi a national dispatch service that connects callers to locally owned cab companies to receive safe transportation and discounted fares."
        }
      ]
    }
  ],
  "priority": 500000,
  "webhookUsed": false,
  "webhookForSlotFilling": false,
  "fallbackIntent": false,
  "events": []
}