{
  "userSays": [
    {
      "id": "dd7f463f-b0e8-4339-85ba-8c04097ad50a",
      "data": [
        {
          "text": "☹"
        }
      ],
      "isTemplate": false,
      "count": 0
    },
    {
      "id": "749076fa-9e7f-485e-80b8-e6771102cc48",
      "data": [
        {
          "text": "Depression"
        }
      ],
      "isTemplate": false,
      "count": 1
    },
    {
      "id": "f307763c-ee8d-47ba-acb8-bdb49f9414ca",
      "data": [
        {
          "text": "I\u0027m depressed"
        }
      ],
      "isTemplate": false,
      "count": 0
    },
    {
      "id": "d6194510-5257-476b-ad63-ff12ba759bd7",
      "data": [
        {
          "text": "I\u0027m sad"
        }
      ],
      "isTemplate": false,
      "count": 0
    }
  ],
  "id": "0e8c563d-0e2d-4a9b-a2bf-f9108ed858da",
  "name": "Emotion - Sad",
  "auto": true,
  "contexts": [],
  "responses": [
    {
      "resetContexts": false,
      "affectedContexts": [],
      "parameters": [],
      "messages": [
        {
          "type": 0,
          "speech": [
            "[img]https://media4.giphy.com/media/9t5a3jQWnNFpC/giphy.gif[/img]",
            "[img]https://media3.giphy.com/media/pLXTOQ383l26Y/giphy.gif[/img]",
            "[img]https://media.giphy.com/media/k61nOBRRBMxva/giphy.gif[/img]",
            "[img]https://media4.giphy.com/media/9t5a3jQWnNFpC/giphy.gif[/img]",
            "[img]https://media3.giphy.com/media/pLXTOQ383l26Y/giphy.gif[/img]",
            "[img]https://media.giphy.com/media/k61nOBRRBMxva/giphy.gif[/img]"
          ]
        }
      ]
    }
  ],
  "priority": 500000,
  "webhookUsed": false,
  "webhookForSlotFilling": false,
  "fallbackIntent": false,
  "events": []
}