{
  "userSays": [
    {
      "id": "9a016b6e-b4c4-4bc4-86ff-fb827f4a38d7",
      "data": [
        {
          "text": "You\u0027re funny"
        }
      ],
      "isTemplate": false,
      "count": 0
    },
    {
      "id": "0021e126-cca2-4e81-8825-f8a89fb45520",
      "data": [
        {
          "text": "your funny"
        }
      ],
      "isTemplate": false,
      "count": 2
    },
    {
      "id": "1bf42e26-daa9-4a9f-a4ef-a9b1c012e556",
      "data": [
        {
          "text": "you are funny"
        }
      ],
      "isTemplate": false,
      "count": 0
    },
    {
      "id": "011e1635-e1d2-4f98-8bd4-068645dba036",
      "data": [
        {
          "text": "Lol"
        }
      ],
      "isTemplate": false,
      "count": 1
    },
    {
      "id": "dbb72e53-3260-45fc-a669-aeae447232c8",
      "data": [
        {
          "text": "Lmao!"
        }
      ],
      "isTemplate": false,
      "count": 0
    },
    {
      "id": "18031e42-26e8-40c4-ab95-f00837c1f301",
      "data": [
        {
          "text": "😂"
        }
      ],
      "isTemplate": false,
      "count": 0
    },
    {
      "id": "b5929a52-7518-402d-8035-c3bbad1dae14",
      "data": [
        {
          "text": "lol"
        }
      ],
      "isTemplate": false,
      "count": 0
    }
  ],
  "id": "2cef4943-db0d-4909-8791-9bbef429ad73",
  "name": "Emotion - LoL",
  "auto": true,
  "contexts": [],
  "responses": [
    {
      "resetContexts": false,
      "affectedContexts": [],
      "parameters": [],
      "messages": [
        {
          "type": 0,
          "speech": [
            "hahahaha",
            "😂"
          ]
        }
      ],
      "defaultResponsePlatforms": {}
    }
  ],
  "priority": 500000,
  "webhookUsed": false,
  "webhookForSlotFilling": false,
  "fallbackIntent": false,
  "events": []
}