{
  "userSays": [
    {
      "id": "9adebab1-27df-4248-ac26-8b151b98dd5a",
      "data": [
        {
          "text": "what company owns Zima"
        }
      ],
      "isTemplate": false,
      "count": 0
    },
    {
      "id": "df4cc196-84af-44e1-85f4-7099e7efd498",
      "data": [
        {
          "text": "who is the owner of Zima"
        }
      ],
      "isTemplate": false,
      "count": 0
    },
    {
      "id": "fa8ad907-294d-4f70-bc9e-754e87c3bb49",
      "data": [
        {
          "text": "who ownes Zima"
        }
      ],
      "isTemplate": false,
      "count": 0
    }
  ],
  "id": "0523ed60-674b-4dc5-afa3-f3ae1aaddb71",
  "name": "FAQ - Who Ownes",
  "auto": true,
  "contexts": [],
  "responses": [
    {
      "resetContexts": false,
      "affectedContexts": [],
      "parameters": [],
      "messages": [
        {
          "type": 0,
          "speech": "Everyone who holds the 90s close in their hearts. Oh, and Zima Beverage Co., in LaCrosse, WI."
        }
      ]
    }
  ],
  "priority": 500000,
  "webhookUsed": false,
  "webhookForSlotFilling": false,
  "fallbackIntent": false,
  "events": []
}