{
  "userSays": [
    {
      "id": "82e66d54-a093-48e5-9076-81264be0dda5",
      "data": [
        {
          "text": "What happened to zima?"
        }
      ],
      "isTemplate": false,
      "count": 0
    },
    {
      "id": "40694750-32e2-46d7-afdf-a4484db56f28",
      "data": [
        {
          "text": "Where did you go? I haven\u0027t seen you in ages!"
        }
      ],
      "isTemplate": false,
      "count": 0
    },
    {
      "id": "d086b5f3-8a04-4d61-96db-23a1e5bda919",
      "data": [
        {
          "text": "Why?",
          "userDefined": false
        }
      ],
      "isTemplate": false,
      "count": 0
    },
    {
      "id": "cf02d649-cad8-4292-b33a-69fe49ec18f7",
      "data": [
        {
          "text": "But why"
        }
      ],
      "isTemplate": false,
      "count": 1
    },
    {
      "id": "b81ebef4-7cab-4542-9d98-7e29a72a0299",
      "data": [
        {
          "text": "why did you go off the market?"
        }
      ],
      "isTemplate": false,
      "count": 0
    },
    {
      "id": "0ebbb2d2-9417-4852-8657-d95cb16accc4",
      "data": [
        {
          "text": "Why u left"
        }
      ],
      "isTemplate": false,
      "count": 0
    },
    {
      "id": "31156854-8a49-46d5-aef8-2440fcf82107",
      "data": [
        {
          "text": "Why did Zima go away?"
        }
      ],
      "isTemplate": false,
      "count": 0
    }
  ],
  "id": "0c6df320-1f64-4425-ab41-51b0e7002f0c",
  "name": "FAQ - Why Left",
  "auto": true,
  "contexts": [],
  "responses": [
    {
      "resetContexts": false,
      "affectedContexts": [],
      "parameters": [],
      "messages": [
        {
          "type": 0,
          "speech": "Zima was a big hit in the 90\u0027s, but all good things must come to an end! Zima predates other similar beverages by quite a bit. It\u0027s been on the market consistently in Japan since it\u0027s debut over 20 years ago, but we felt like 2017 was the perfect time to bring back this classic drink."
        }
      ]
    }
  ],
  "priority": 500000,
  "webhookUsed": false,
  "webhookForSlotFilling": false,
  "fallbackIntent": false,
  "events": []
}