{
  "userSays": [
    {
      "id": "2781eb56-9906-47de-9a46-d3b589dacdbb",
      "data": [
        {
          "text": "Nutrition"
        }
      ],
      "isTemplate": false,
      "count": 1
    },
    {
      "id": "e1a91884-c580-4041-992f-8054b0adcc27",
      "data": [
        {
          "text": "Ingredients"
        }
      ],
      "isTemplate": false,
      "count": 1
    },
    {
      "id": "51b79d21-7027-48bf-b1fb-6c45b8678820",
      "data": [
        {
          "text": "Nutritional label"
        }
      ],
      "isTemplate": false,
      "count": 0
    },
    {
      "id": "5e0da2f6-56fc-4538-9af8-0f5805cb4674",
      "data": [
        {
          "text": "Is there any piss in zima?"
        }
      ],
      "isTemplate": false,
      "count": 1
    },
    {
      "id": "976b8b53-e9a7-43f2-b64e-9f75b591bc02",
      "data": [
        {
          "text": "Hey, is Zima Vegan?"
        }
      ],
      "isTemplate": false,
      "count": 0
    },
    {
      "id": "ec2e33e2-2e86-42b0-b20b-335ea511fdd4",
      "data": [
        {
          "text": "vegan?!"
        }
      ],
      "isTemplate": false,
      "count": 0
    },
    {
      "id": "29f925ee-d155-4ab0-b8ff-b0ff88e72dde",
      "data": [
        {
          "text": "Nutrition info"
        }
      ],
      "isTemplate": false,
      "count": 0
    },
    {
      "id": "62031042-59f8-4f44-baf0-409bade174bc",
      "data": [
        {
          "text": "What is the Nutritional value of Zima?"
        }
      ],
      "isTemplate": false,
      "count": 0
    }
  ],
  "id": "294bc4de-c11f-4993-88da-a6bdd09e8033",
  "name": "FAQ - Nutrition",
  "auto": true,
  "contexts": [],
  "responses": [
    {
      "resetContexts": false,
      "affectedContexts": [],
      "parameters": [],
      "messages": [
        {
          "type": 0,
          "speech": "For a 12 fluid oz. serving: 5% alcohol, 181 calories, 21.1g carbohydrates, and less than 1g of protein and fat. We think it\u0027s just right."
        }
      ]
    }
  ],
  "priority": 500000,
  "webhookUsed": false,
  "webhookForSlotFilling": false,
  "fallbackIntent": false,
  "events": []
}