{
  "userSays": [
    {
      "id": "299884c4-e443-40e7-917b-39fe5ae42ac5",
      "data": [
        {
          "text": "What makes you taste so good"
        }
      ],
      "isTemplate": false,
      "count": 0
    },
    {
      "id": "dc58ffdb-d8ae-47d1-b523-c3d681479ce0",
      "data": [
        {
          "text": "How does it taste"
        }
      ],
      "isTemplate": false,
      "count": 0
    },
    {
      "id": "9fb65132-a25f-4e70-a3da-50321b4efbd2",
      "data": [
        {
          "text": "what\u0027s the taste?"
        }
      ],
      "isTemplate": false,
      "count": 0
    },
    {
      "id": "9f21cb31-1083-4712-898a-2ef78d0206cb",
      "data": [
        {
          "text": "What does zima taste like?"
        }
      ],
      "isTemplate": false,
      "count": 0
    }
  ],
  "id": "83c5a262-8379-4cfb-a8eb-c62260d5c6c7",
  "name": "FAQ - Taste",
  "auto": true,
  "contexts": [],
  "responses": [
    {
      "resetContexts": false,
      "affectedContexts": [],
      "parameters": [],
      "messages": [
        {
          "type": 0,
          "speech": [
            "My citrus taste is timeless. Like your wildest 90s dreams.",
            "I taste as sweet and refreshing as your best memories from the 90s.",
            "Close your eyes. Now imagine if you combined the sweet essence of Bel Biv Devoe, Super Mario World, and snap bracelets. That\u0027s what I taste like."
          ]
        }
      ]
    }
  ],
  "priority": 500000,
  "webhookUsed": false,
  "webhookForSlotFilling": false,
  "fallbackIntent": false,
  "events": []
}