{
  "userSays": [
    {
      "id": "8fcc8e2a-aa5a-4879-ac5b-3c0da7567c89",
      "data": [
        {
          "text": "Where can I find you?"
        }
      ],
      "isTemplate": false,
      "count": 0
    },
    {
      "id": "183a42af-a373-4101-80a1-4d1ca625f836",
      "data": [
        {
          "text": "Go get you"
        }
      ],
      "isTemplate": false,
      "count": 0
    },
    {
      "id": "a342c7fd-2b77-433a-bc55-57db5e6bc9a3",
      "data": [
        {
          "text": "Really never had "
        },
        {
          "text": "1",
          "alias": "number",
          "meta": "@sys.number",
          "userDefined": false
        }
      ],
      "isTemplate": false,
      "count": 0
    },
    {
      "id": "3896f3d3-8ee1-4a8f-9e8a-ba34313b342a",
      "data": [
        {
          "text": "Never drank a malt beaverage"
        }
      ],
      "isTemplate": false,
      "count": 0
    },
    {
      "id": "7f771c12-5c3c-44e9-b191-0c2942879d2e",
      "data": [
        {
          "text": "So they sell you"
        }
      ],
      "isTemplate": false,
      "count": 0
    },
    {
      "id": "9a7d4ee3-b7ea-464c-895b-ff0b88d9d514",
      "data": [
        {
          "text": "in "
        },
        {
          "text": "indiana",
          "alias": "geo-state-us",
          "meta": "@sys.geo-state-us",
          "userDefined": false
        },
        {
          "text": "?"
        }
      ],
      "isTemplate": false,
      "count": 0
    },
    {
      "id": "7485c009-3525-4bef-8a30-2550a0a1642c",
      "data": [
        {
          "text": "Is the zima drink available"
        }
      ],
      "isTemplate": false,
      "count": 0
    },
    {
      "id": "cb4b6e01-5271-4c77-82d0-e2814f614bbe",
      "data": [
        {
          "text": "I want a zima"
        }
      ],
      "isTemplate": false,
      "count": 0
    },
    {
      "id": "a2b14595-a6b0-4fb7-aa43-3988a83a9c95",
      "data": [
        {
          "text": "Where can I find a cool refreshing zima"
        }
      ],
      "isTemplate": false,
      "count": 0
    },
    {
      "id": "d51426f7-c31f-4ae4-aa37-9733cda9fb1a",
      "data": [
        {
          "text": "When and where"
        }
      ],
      "isTemplate": false,
      "count": 0
    },
    {
      "id": "e47f0910-bc7b-41d2-82a4-418bdc19c6f5",
      "data": [
        {
          "text": "Where can I get it ?",
          "userDefined": false
        }
      ],
      "isTemplate": false,
      "count": 1
    },
    {
      "id": "7c382d50-e28e-440b-aa42-e6a97ab21206",
      "data": [
        {
          "text": "where are you"
        }
      ],
      "isTemplate": false,
      "count": 0
    },
    {
      "id": "1dc36c9d-eb10-4ff9-a664-8271676252de",
      "data": [
        {
          "text": "buy zima !"
        }
      ],
      "isTemplate": false,
      "count": 0
    },
    {
      "id": "4f691693-dbbe-4da6-be51-ca73a00884a8",
      "data": [
        {
          "text": "Where to buy zima"
        }
      ],
      "isTemplate": false,
      "count": 0
    },
    {
      "id": "456ab1f4-5964-4563-8f00-671e36f0242c",
      "data": [
        {
          "text": "Colorado",
          "alias": "geo-state-us",
          "meta": "@sys.geo-state-us",
          "userDefined": false
        },
        {
          "text": "?"
        }
      ],
      "isTemplate": false,
      "count": 1
    },
    {
      "id": "9e583201-18f9-4e4e-b24a-cacdcbce4f00",
      "data": [
        {
          "text": "Do u sale in "
        },
        {
          "text": "colorado",
          "alias": "geo-state-us",
          "meta": "@sys.geo-state-us",
          "userDefined": false
        }
      ],
      "isTemplate": false,
      "count": 1
    },
    {
      "id": "ebafd24d-9fb6-48d9-add8-ef3f7c4f2389",
      "data": [
        {
          "text": "In "
        },
        {
          "text": "colorado",
          "alias": "geo-state-us",
          "meta": "@sys.geo-state-us",
          "userDefined": false
        },
        {
          "text": "?"
        }
      ],
      "isTemplate": false,
      "count": 1
    },
    {
      "id": "be03ba3a-19b4-4940-99e2-976c8e810c1f",
      "data": [
        {
          "text": "where to purchase"
        }
      ],
      "isTemplate": false,
      "count": 0
    },
    {
      "id": "644f6fd0-0912-4921-9d41-e7e68842688f",
      "data": [
        {
          "text": "purchase"
        }
      ],
      "isTemplate": false,
      "count": 0
    },
    {
      "id": "1afd59ed-9087-4b04-a2d2-352efdb85ecc",
      "data": [
        {
          "text": "Gimmy Zima"
        }
      ],
      "isTemplate": false,
      "count": 0
    },
    {
      "id": "7499fa75-adb8-4923-b7ff-9905ddb61f87",
      "data": [
        {
          "text": "who has zima"
        }
      ],
      "isTemplate": false,
      "count": 0
    },
    {
      "id": "fe7d3fdc-c3fe-4d8d-92b1-884510272e5c",
      "data": [
        {
          "text": "zima where"
        }
      ],
      "isTemplate": false,
      "count": 0
    },
    {
      "id": "1ef334da-e377-4c12-a47e-1b068c297841",
      "data": [
        {
          "text": "who will sell me zima"
        }
      ],
      "isTemplate": false,
      "count": 0
    },
    {
      "id": "9dd2b0b1-2a71-4207-aa92-abab2669a50c",
      "data": [
        {
          "text": "Which store has zima"
        }
      ],
      "isTemplate": false,
      "count": 0
    },
    {
      "id": "481ea7ea-c740-4927-a06c-bc422874dd57",
      "data": [
        {
          "text": "how do I find Zima"
        }
      ],
      "isTemplate": false,
      "count": 1
    },
    {
      "id": "942bd9d3-e08d-442d-9863-ea73ce17a814",
      "data": [
        {
          "text": "which bar sells zima"
        }
      ],
      "isTemplate": false,
      "count": 1
    },
    {
      "id": "60ee1e81-acdf-403b-a8b5-36607547a559",
      "data": [
        {
          "text": "Are you available in "
        },
        {
          "text": "New York",
          "meta": "@sys.ignore",
          "userDefined": false
        }
      ],
      "isTemplate": false,
      "count": 4
    },
    {
      "id": "14de85b9-6a40-43a8-a702-e086dc4cdd5e",
      "data": [
        {
          "text": "Are you Available in "
        },
        {
          "text": "New York",
          "meta": "@sys.ignore",
          "userDefined": false
        }
      ],
      "isTemplate": false,
      "count": 1
    },
    {
      "id": "480a4aa1-e55f-43f3-9828-21038dc6871c",
      "data": [
        {
          "text": "I want beer"
        }
      ],
      "isTemplate": false,
      "count": 4
    },
    {
      "id": "1e6d9d2d-eaf7-4662-baae-3c66f447cdb2",
      "data": [
        {
          "text": "I want Zima"
        }
      ],
      "isTemplate": false,
      "count": 0
    },
    {
      "id": "69304c1d-280d-401f-a9a0-faf375cb3f10",
      "data": [
        {
          "text": "Get some"
        }
      ],
      "isTemplate": false,
      "count": 0
    },
    {
      "id": "fffa9aad-0185-4b1e-82ea-006c6428cb0b",
      "data": [
        {
          "text": "Buy"
        }
      ],
      "isTemplate": false,
      "count": 0
    },
    {
      "id": "afc6fc73-21af-4892-8f43-9b4842b59c2e",
      "data": [
        {
          "text": "Where can I buy"
        }
      ],
      "isTemplate": false,
      "count": 0
    },
    {
      "id": "1c93c4ac-1a1a-4246-af47-83da9ffa1a93",
      "data": [
        {
          "text": "Are you available in "
        },
        {
          "text": "California",
          "meta": "@sys.ignore",
          "userDefined": false
        }
      ],
      "isTemplate": false,
      "count": 0
    },
    {
      "id": "4cee3c8b-c898-4aa8-8e70-dbe8118587bd",
      "data": [
        {
          "text": "where in stores"
        }
      ],
      "isTemplate": false,
      "count": 1
    },
    {
      "id": "bee1fa7a-726e-46e1-ae2e-57e51b95e893",
      "data": [
        {
          "text": "in what stores"
        }
      ],
      "isTemplate": false,
      "count": 0
    },
    {
      "id": "e69d8dcd-3e1a-4188-852a-97bee88346b1",
      "data": [
        {
          "text": "what stores"
        }
      ],
      "isTemplate": false,
      "count": 0
    },
    {
      "id": "9521e9a1-d4be-415b-bde8-562cef539ec6",
      "data": [
        {
          "text": "I want a Zima"
        }
      ],
      "isTemplate": false,
      "count": 0
    },
    {
      "id": "38f55218-cd6d-4798-80ed-a58a38cab131",
      "data": [
        {
          "text": "Where can I find a case in "
        },
        {
          "text": "lynnwood",
          "meta": "@sys.ignore",
          "userDefined": false
        },
        {
          "text": " wa"
        }
      ],
      "isTemplate": false,
      "count": 0
    },
    {
      "id": "fc5914dc-05f1-4b5b-9975-03b5068440ac",
      "data": [
        {
          "text": "Need some Zima"
        }
      ],
      "isTemplate": false,
      "count": 0
    },
    {
      "id": "7852251b-cbed-4f1b-9cc9-a13c6f711a32",
      "data": [
        {
          "text": "Where can I get Zima in"
        }
      ],
      "isTemplate": false,
      "count": 0
    },
    {
      "id": "ad9aa243-b0e8-43f6-a713-cce2b337aecc",
      "data": [
        {
          "text": "Where can I find Zima"
        }
      ],
      "isTemplate": false,
      "count": 0
    },
    {
      "id": "e96b016f-06c9-45e5-a7ce-dc662f0670b9",
      "data": [
        {
          "text": "Where can I get Zima"
        }
      ],
      "isTemplate": false,
      "count": 0
    },
    {
      "id": "91bf20c7-1210-4beb-9776-3acf3804ea26",
      "data": [
        {
          "text": "can\u0027t find"
        }
      ],
      "isTemplate": false,
      "count": 0
    },
    {
      "id": "e91efc2e-9adf-49b2-ba03-cdb4915fd881",
      "data": [
        {
          "text": "Where to find zima"
        }
      ],
      "isTemplate": false,
      "count": 0
    },
    {
      "id": "ee78813c-42e8-4b0a-ba87-3d31e9974a09",
      "data": [
        {
          "text": "I can\u0027t find zima"
        }
      ],
      "isTemplate": false,
      "count": 0
    },
    {
      "id": "0be8074a-83df-4835-b3b4-609021f91291",
      "data": [
        {
          "text": "Do you have a location for "
        },
        {
          "text": "New York",
          "meta": "@sys.ignore",
          "userDefined": false
        }
      ],
      "isTemplate": false,
      "count": 0
    },
    {
      "id": "8528cf29-d71f-4aee-aebf-7b7119bf53f2",
      "data": [
        {
          "text": "Where is Zima sold in "
        },
        {
          "text": "Michigan",
          "meta": "@sys.ignore",
          "userDefined": false
        },
        {
          "text": " "
        },
        {
          "text": "48336",
          "meta": "@sys.ignore",
          "userDefined": false
        },
        {
          "text": " zip"
        }
      ],
      "isTemplate": false,
      "count": 0
    },
    {
      "id": "05885e44-8003-46b9-9b5b-9a9b2a115f5a",
      "data": [
        {
          "text": "Where is Zuma sold in "
        },
        {
          "text": "Michigan",
          "meta": "@sys.ignore",
          "userDefined": false
        },
        {
          "text": " "
        },
        {
          "text": "48336",
          "meta": "@sys.ignore",
          "userDefined": false
        },
        {
          "text": " zip"
        }
      ],
      "isTemplate": false,
      "count": 0
    },
    {
      "id": "dd8ff744-a56f-4cdd-99ab-83d3df7d7794",
      "data": [
        {
          "text": "Where can I buy it in the "
        },
        {
          "text": "USA",
          "meta": "@sys.ignore",
          "userDefined": false
        },
        {
          "text": "​?"
        }
      ],
      "isTemplate": false,
      "count": 1
    },
    {
      "id": "84a471f4-3c90-4c90-ac97-1ac59939d1b0",
      "data": [
        {
          "text": "Do you have a list or resellers or some sort of store locator??"
        }
      ],
      "isTemplate": false,
      "count": 0
    },
    {
      "id": "f0051ee2-88e8-439a-9a23-9672ca9b7f14",
      "data": [
        {
          "text": " how to find a store that will be carrying it."
        }
      ],
      "isTemplate": false,
      "count": 0
    },
    {
      "id": "bb0a6c0b-cc4a-4b99-bc56-74b28ed1d095",
      "data": [
        {
          "text": "Where to buy in "
        },
        {
          "text": "Bucks",
          "meta": "@sys.ignore",
          "userDefined": false
        },
        {
          "text": " County, PA"
        }
      ],
      "isTemplate": false,
      "count": 0
    },
    {
      "id": "509acc63-b4e7-4153-b78f-0cdff4c1c60d",
      "data": [
        {
          "text": "Is Zuma really coming back? If so, what state???"
        }
      ],
      "isTemplate": false,
      "count": 1
    },
    {
      "id": "da6d4deb-3080-4ee9-981c-6bb8c34c8a46",
      "data": [
        {
          "text": "Do you have a location for "
        },
        {
          "text": "Texas",
          "meta": "@sys.ignore",
          "userDefined": false
        },
        {
          "text": " yet"
        }
      ],
      "isTemplate": false,
      "count": 0
    },
    {
      "id": "cf5dda9f-8950-4e21-aaac-26c968e19a6d",
      "data": [
        {
          "text": "Where can I find out the closet area it\u0027s being sold near me?"
        }
      ],
      "isTemplate": false,
      "count": 0
    },
    {
      "id": "ba8cff7e-f0e4-4182-87dd-b017c465f13b",
      "data": [
        {
          "text": "Omg please tell me where this will be sold??"
        }
      ],
      "isTemplate": false,
      "count": 0
    },
    {
      "id": "286ca34b-5761-489f-a5d2-dc9c3a73b5d6",
      "data": [
        {
          "text": "Do you have a way to find out if stores in your area have it"
        }
      ],
      "isTemplate": false,
      "count": 0
    },
    {
      "id": "c0be30eb-bd9c-421d-8166-aeed057a508f",
      "data": [
        {
          "text": "Where can I get some"
        }
      ],
      "isTemplate": false,
      "count": 0
    },
    {
      "id": "bd9d03eb-b126-4554-8bda-cc485b388cf7",
      "data": [
        {
          "text": "Where can I buy zima"
        }
      ],
      "isTemplate": false,
      "count": 0
    },
    {
      "id": "55678154-8cbf-4ef0-b40f-6bd28039055b",
      "data": [
        {
          "text": "Where can I find it"
        }
      ],
      "isTemplate": false,
      "count": 0
    },
    {
      "id": "1f7e5e61-91be-4864-88f5-28b7650ee40d",
      "data": [
        {
          "text": "Where can I get it"
        }
      ],
      "isTemplate": false,
      "count": 0
    },
    {
      "id": "fc459c9d-2a59-44ae-a2b5-1726365a72e1",
      "data": [
        {
          "text": "Where is it!"
        }
      ],
      "isTemplate": false,
      "count": 0
    },
    {
      "id": "11073722-fdf1-41a7-9d8f-ab3f32c55a08",
      "data": [
        {
          "text": "Where can I find ZIMA near me?"
        }
      ],
      "isTemplate": false,
      "count": 0
    }
  ],
  "id": "e4f15298-4e8e-4aca-821a-505b4ead78d3",
  "name": "FAQ - Where To Find",
  "auto": true,
  "contexts": [],
  "responses": [
    {
      "resetContexts": false,
      "affectedContexts": [],
      "parameters": [
        {
          "dataType": "@sys.geo-state-us",
          "name": "geo-state-us",
          "value": "$geo-state-us",
          "isList": true
        }
      ],
      "messages": [
        {
          "type": 0,
          "speech": "gotcha"
        }
      ],
      "defaultResponsePlatforms": {
        "facebook": true
      }
    }
  ],
  "priority": 500000,
  "webhookUsed": false,
  "webhookForSlotFilling": false,
  "fallbackIntent": false,
  "events": []
}