{
  "userSays": [
    {
      "id": "203c97ed-6fc2-4ba9-8bfb-0ce0590bf722",
      "data": [
        {
          "text": "Where will people be able to buy Zima?"
        }
      ],
      "isTemplate": false,
      "count": 0
    }
  ],
  "id": "007b3818-6961-40c0-b9d2-5606d4703379",
  "name": "FAQ - Where Places",
  "auto": true,
  "contexts": [],
  "responses": [
    {
      "resetContexts": false,
      "affectedContexts": [],
      "parameters": [],
      "messages": [
        {
          "type": 0,
          "speech": "You can get Zima at grocery and convenience stores across the country - but only for a limited time! Starting July 4, Zima will be available for two months. Gram some while you can!"
        }
      ]
    }
  ],
  "priority": 500000,
  "webhookUsed": false,
  "webhookForSlotFilling": false,
  "fallbackIntent": false,
  "events": []
}