{
  "userSays": [
    {
      "id": "0e2fdabc-5ba7-4fd1-af9f-fae4ee2b9b1b",
      "data": [
        {
          "text": "Ninja turtles"
        }
      ],
      "isTemplate": false,
      "count": 1
    },
    {
      "id": "223cf5e5-489c-484d-8fdc-233cb83e48bf",
      "data": [
        {
          "text": "Married with children"
        }
      ],
      "isTemplate": false,
      "count": 0
    },
    {
      "id": "ee6bdf21-0fd2-4d11-acf5-39a72c664929",
      "data": [
        {
          "text": "Saved by the bell"
        }
      ],
      "isTemplate": false,
      "count": 1
    },
    {
      "id": "0dfa176b-347b-4009-8033-2c9d1de05a54",
      "data": [
        {
          "text": "Step by Step"
        }
      ],
      "isTemplate": false,
      "count": 1
    },
    {
      "id": "1bbd4584-f433-4bec-8d4d-d42b28ed83dc",
      "data": [
        {
          "text": "My So-Called Life"
        }
      ],
      "isTemplate": false,
      "count": 0
    },
    {
      "id": "269fe226-f3df-4282-86cf-9162d2c419ab",
      "data": [
        {
          "text": "choice of tv show"
        }
      ],
      "isTemplate": false,
      "count": 0
    },
    {
      "id": "95ef2bf2-e2a2-4d10-84b3-2e0b1ca6426a",
      "data": [
        {
          "text": "favored tv show"
        }
      ],
      "isTemplate": false,
      "count": 0
    },
    {
      "id": "1347a6de-582a-4753-8a55-280b296c1ea0",
      "data": [
        {
          "text": "preferred tv show"
        }
      ],
      "isTemplate": false,
      "count": 0
    },
    {
      "id": "a38602dd-4313-4273-acb8-959d358d747d",
      "data": [
        {
          "text": "name your favorite tv show"
        }
      ],
      "isTemplate": false,
      "count": 0
    },
    {
      "id": "4e05d1cd-6c01-4354-a8e1-90b97f12b0e2",
      "data": [
        {
          "text": "which show do you ilke"
        }
      ],
      "isTemplate": false,
      "count": 0
    },
    {
      "id": "6d7ccfa5-2131-46ca-bbc1-4d1827d87949",
      "data": [
        {
          "text": "What\u0027s your favorite show?"
        }
      ],
      "isTemplate": false,
      "count": 0
    }
  ],
  "id": "0716ed03-f8d2-490b-a386-60a0470055b8",
  "name": "favorite show",
  "auto": true,
  "contexts": [],
  "responses": [
    {
      "resetContexts": false,
      "affectedContexts": [],
      "parameters": [],
      "messages": [
        {
          "type": 0,
          "speech": [
            "It\u0027s hard to pick just one, but it would have to be Moesha.",
            "Wow, narrowing it down is tough! I guess I would say In Living Color.",
            "How can you ask me to pick just one! Hmm....I\u0027d have to say Arsenio Hall."
          ]
        }
      ]
    }
  ],
  "priority": 500000,
  "webhookUsed": false,
  "webhookForSlotFilling": false,
  "fallbackIntent": false,
  "events": []
}