{
  "userSays": [
    {
      "id": "811b00c1-0b80-4824-87ad-37fbb13e83df",
      "data": [
        {
          "text": "can I put Jolly Ranchers in it"
        }
      ],
      "isTemplate": false,
      "count": 0
    },
    {
      "id": "dffe1d98-66bf-471c-8445-6450b9b35ec4",
      "data": [
        {
          "text": "I want to put jolly ranchers in it"
        }
      ],
      "isTemplate": false,
      "count": 0
    },
    {
      "id": "92cc7a7a-f9e1-4e66-9394-faa4236c0652",
      "data": [
        {
          "text": "I put Jolly Ranchers in it"
        }
      ],
      "isTemplate": false,
      "count": 0
    }
  ],
  "id": "b094c87b-d0e3-4d0f-8ad9-0fe01d204754",
  "name": "Food - Jolly Ranchers",
  "auto": true,
  "contexts": [],
  "responses": [
    {
      "resetContexts": false,
      "affectedContexts": [],
      "parameters": [],
      "messages": [
        {
          "type": 0,
          "speech": [
            "Getting creative with Zima is awesome, as long as you do it responsibly!",
            "We\u0027re open to enjoying Zima all kinds of different ways. Just be sure to drink responsibly.",
            "There are lots of ways to enjoy Zima, but please drink responsibly!"
          ]
        }
      ]
    }
  ],
  "priority": 500000,
  "webhookUsed": false,
  "webhookForSlotFilling": false,
  "fallbackIntent": false,
  "events": []
}