{
  "userSays": [
    {
      "id": "8e650fe4-de88-4ca0-9eb7-cb4cbf86f7be",
      "data": [
        {
          "text": "kardashians"
        }
      ],
      "isTemplate": false,
      "count": 0
    },
    {
      "id": "d837a353-4129-4f5d-9c25-513f7232919c",
      "data": [
        {
          "text": "kim",
          "meta": "@sys.ignore",
          "userDefined": false
        },
        {
          "text": " and kanye west"
        }
      ],
      "isTemplate": false,
      "count": 0
    },
    {
      "id": "2a27a0f5-eda5-41d1-8248-44c8386bca83",
      "data": [
        {
          "text": "kim",
          "meta": "@sys.ignore",
          "userDefined": false
        },
        {
          "text": " kardashian"
        }
      ],
      "isTemplate": false,
      "count": 0
    }
  ],
  "id": "f41b61a7-89dc-402f-8489-78a15b6c9a8b",
  "name": "kardashians",
  "auto": true,
  "contexts": [],
  "responses": [
    {
      "resetContexts": false,
      "affectedContexts": [],
      "parameters": [],
      "messages": [
        {
          "type": 0,
          "speech": [
            "I keep hearing that name! Are \"Kim\" and \"Kanye\" like this power couple?",
            "So these Kardashians....they seem to be famous for being in dramatic relationships. Like these guys: [img]https://media0.giphy.com/media/UiOCRm3B9VFyU/giphy.gif[/img]"
          ]
        }
      ]
    }
  ],
  "priority": 500000,
  "webhookUsed": false,
  "webhookForSlotFilling": false,
  "fallbackIntent": false,
  "events": []
}