{
  "userSays": [
    {
      "id": "fe5529d0-52d9-41b8-acaa-2c9784493e35",
      "data": [
        {
          "text": "Quiz"
        }
      ],
      "isTemplate": false,
      "count": 0
    },
    {
      "id": "bf057a3d-067d-42ff-bbb0-3da80a608c83",
      "data": [
        {
          "text": "Info of "
        },
        {
          "text": "the 90s",
          "alias": "date-period",
          "meta": "@sys.date-period",
          "userDefined": false
        }
      ],
      "isTemplate": false,
      "count": 0
    },
    {
      "id": "9299e67a-dba4-4db8-96a9-b4b74f6e5cc7",
      "data": [
        {
          "text": "Can we play more trivia?"
        }
      ],
      "isTemplate": false,
      "count": 0
    },
    {
      "id": "4d1240ac-8fc3-407f-8f7c-b5841ac7e9bd",
      "data": [
        {
          "text": "What is this a game"
        }
      ],
      "isTemplate": false,
      "count": 0
    },
    {
      "id": "f32ae7fd-2a8e-4b76-b210-0837f1a57f0d",
      "data": [
        {
          "text": "I want to play trivia"
        }
      ],
      "isTemplate": false,
      "count": 0
    },
    {
      "id": "9c1d85fb-b55d-47ae-a86e-e7eabdf1d71a",
      "data": [
        {
          "text": "I want trivia"
        }
      ],
      "isTemplate": false,
      "count": 0
    },
    {
      "id": "3aa4d841-6761-4ab6-9aa2-e706cc1536ee",
      "data": [
        {
          "text": "Menu trivia"
        }
      ],
      "isTemplate": false,
      "count": 0
    },
    {
      "id": "0ceb6f3f-855d-4f33-b387-9d54ce844c8d",
      "data": [
        {
          "text": "Trivia"
        }
      ],
      "isTemplate": false,
      "count": 0
    }
  ],
  "id": "8c5165e2-1e63-480c-8495-dfae992c4a7b",
  "name": "Menu - Trivia",
  "auto": true,
  "contexts": [],
  "responses": [
    {
      "resetContexts": false,
      "affectedContexts": [],
      "parameters": [],
      "messages": [
        {
          "type": 0,
          "speech": []
        }
      ]
    }
  ],
  "priority": 500000,
  "webhookUsed": false,
  "webhookForSlotFilling": false,
  "fallbackIntent": false,
  "events": []
}