{
  "userSays": [
    {
      "id": "fa909527-680d-46af-adc1-3b586afffa81",
      "data": [
        {
          "text": "Elf"
        }
      ],
      "isTemplate": false,
      "count": 0
    },
    {
      "id": "a01ffe5f-4a6e-4144-a8e4-f3bb0f0115fb",
      "data": [
        {
          "text": "no"
        }
      ],
      "isTemplate": false,
      "count": 0
    },
    {
      "id": "f754930c-a1d0-4b64-ae4a-6efd989ffee6",
      "data": [
        {
          "text": "don\u0027t do it"
        }
      ],
      "isTemplate": false,
      "count": 0
    },
    {
      "id": "c0328fcf-b9be-4b9b-a1ed-5b34cfc119be",
      "data": [
        {
          "text": "definitely not"
        }
      ],
      "isTemplate": false,
      "count": 0
    },
    {
      "id": "25593e7e-9b8b-414d-8e80-92dd6619247f",
      "data": [
        {
          "text": "not really"
        }
      ],
      "isTemplate": false,
      "count": 0
    },
    {
      "id": "535290b3-88f1-4a4b-9f23-3ca42ea0e040",
      "data": [
        {
          "text": "thanks but no"
        }
      ],
      "isTemplate": false,
      "count": 0
    },
    {
      "id": "3a643634-9cbf-4ac8-b813-c555e04a8cbd",
      "data": [
        {
          "text": "not interested"
        }
      ],
      "isTemplate": false,
      "count": 0
    },
    {
      "id": "f6b6920e-668b-4982-9651-1dd2b3213f88",
      "data": [
        {
          "text": "I don\u0027t think so"
        }
      ],
      "isTemplate": false,
      "count": 0
    },
    {
      "id": "bece4ee1-da70-4ef2-a67f-6a853fa125e9",
      "data": [
        {
          "text": "I disagree"
        }
      ],
      "isTemplate": false,
      "count": 0
    },
    {
      "id": "a48131d9-68d7-4328-bb5e-b612b249cc0d",
      "data": [
        {
          "text": "I don\u0027t want that"
        }
      ],
      "isTemplate": false,
      "count": 0
    }
  ],
  "id": "7ae23dc4-c01d-4a49-b7a4-392d32448678",
  "parentId": "daa467a2-75ca-410a-aee3-989682d54e2e",
  "rootParentId": "daa467a2-75ca-410a-aee3-989682d54e2e",
  "name": "Movie - Other - no",
  "auto": true,
  "contexts": [
    "Movie-Other-followup"
  ],
  "responses": [
    {
      "resetContexts": false,
      "action": "Movie-Other.Movie-Other-no",
      "affectedContexts": [],
      "parameters": [],
      "messages": [
        {
          "type": 0,
          "speech": "well that explains it!"
        }
      ]
    }
  ],
  "priority": 500000,
  "webhookUsed": false,
  "webhookForSlotFilling": false,
  "fallbackIntent": false,
  "events": []
}