{
  "userSays": [
    {
      "id": "89608748-2c6e-49b7-ad27-07268db57f53",
      "data": [
        {
          "text": "Faces Of Death"
        }
      ],
      "isTemplate": false,
      "count": 1
    }
  ],
  "id": "daa467a2-75ca-410a-aee3-989682d54e2e",
  "name": "Movie - Other",
  "auto": true,
  "contexts": [],
  "responses": [
    {
      "resetContexts": false,
      "affectedContexts": [
        {
          "name": "Movie-Other-followup",
          "parameters": {},
          "lifespan": 2
        }
      ],
      "parameters": [],
      "messages": [
        {
          "type": 0,
          "speech": [
            "You sure that\u0027s a movie?",
            "Hmm don\u0027t know it."
          ]
        }
      ]
    }
  ],
  "priority": 500000,
  "webhookUsed": false,
  "webhookForSlotFilling": false,
  "fallbackIntent": false,
  "events": []
}