{
  "userSays": [
    {
      "id": "a7559cbf-40af-4540-a03b-943c5d62eee1",
      "data": [
        {
          "text": "watching a movie called"
        }
      ],
      "isTemplate": false,
      "count": 0
    },
    {
      "id": "90dda12d-b130-46f4-b059-d1275827045f",
      "data": [
        {
          "text": "watching "
        },
        {
          "text": "Stranger Things",
          "alias": "Network",
          "meta": "@Network",
          "userDefined": true
        }
      ],
      "isTemplate": false,
      "count": 0
    },
    {
      "id": "e8eb3722-82be-4acc-9872-0310adc5d9ee",
      "data": [
        {
          "text": "I just started watching "
        },
        {
          "text": "Stranger Things",
          "alias": "Movie",
          "meta": "@Movie",
          "userDefined": true
        }
      ],
      "isTemplate": false,
      "count": 0
    }
  ],
  "id": "0b38e8ea-797f-4010-860f-2bd1405bba57",
  "name": "Netflix",
  "auto": true,
  "contexts": [],
  "responses": [
    {
      "resetContexts": false,
      "affectedContexts": [
        {
          "name": "Netflix-followup",
          "parameters": {},
          "lifespan": 2
        }
      ],
      "parameters": [
        {
          "dataType": "@Movie",
          "name": "Movie",
          "value": "$Movie",
          "isList": false
        },
        {
          "dataType": "@Network",
          "name": "Network",
          "value": "$Network",
          "isList": false
        }
      ],
      "messages": [
        {
          "type": 0,
          "speech": "$Movie, what network is that on ?"
        }
      ]
    }
  ],
  "priority": 500000,
  "webhookUsed": false,
  "webhookForSlotFilling": false,
  "fallbackIntent": false,
  "events": []
}