{
  "userSays": [
    {
      "id": "d04e58cb-9c8b-45ff-b2bb-44daafa3b0e7",
      "data": [
        {
          "text": "the web"
        }
      ],
      "isTemplate": false,
      "count": 0
    },
    {
      "id": "38cf2558-5481-4202-b9d2-a728e2add1e3",
      "data": [
        {
          "text": "the interweb"
        }
      ],
      "isTemplate": false,
      "count": 0
    },
    {
      "id": "b7f8a2a7-1f94-4464-89b7-95192af942f2",
      "data": [
        {
          "text": "it\u0027s on the internet"
        }
      ],
      "isTemplate": false,
      "count": 0
    },
    {
      "id": "63a0b40f-fbf7-4fe1-96e6-a6690b35f81a",
      "data": [
        {
          "text": "the Internet"
        }
      ],
      "isTemplate": false,
      "count": 0
    }
  ],
  "id": "a7335368-490f-4695-9b35-0bab797d5dc7",
  "parentId": "c6a49a77-2a5b-4fc3-b81d-33af3237706a",
  "rootParentId": "0b38e8ea-797f-4010-860f-2bd1405bba57",
  "name": "Netflix - custom - custom",
  "auto": true,
  "contexts": [
    "Netflix-custom-followup"
  ],
  "responses": [
    {
      "resetContexts": false,
      "action": "Netflix.Netflix-custom.Netflix-custom-custom",
      "affectedContexts": [],
      "parameters": [],
      "messages": [
        {
          "type": 0,
          "speech": "Like AOL ?  Hold on I\u0027ll check it out . . . . . . ."
        }
      ]
    }
  ],
  "priority": 500000,
  "webhookUsed": false,
  "webhookForSlotFilling": false,
  "fallbackIntent": false,
  "events": []
}