{
  "userSays": [
    {
      "id": "9e8311ac-a5d4-41cc-b614-eae2691a3f59",
      "data": [
        {
          "text": "Did you know "
        },
        {
          "text": "Aaron Carter",
          "alias": "music-artist",
          "meta": "@sys.music-artist",
          "userDefined": false
        },
        {
          "text": "?"
        }
      ],
      "isTemplate": false,
      "count": 0
    },
    {
      "id": "331384fd-3116-45f0-9b5a-d5c0e293fcf6",
      "data": [
        {
          "text": "Buzz lightyear"
        }
      ],
      "isTemplate": false,
      "count": 0
    },
    {
      "id": "0d77e33f-845b-46ce-afa8-b10e4a0bcc17",
      "data": [
        {
          "text": "I hate "
        },
        {
          "text": "George Clooney",
          "alias": "NinetiesCeleb",
          "meta": "@NinetiesCeleb",
          "userDefined": false
        }
      ],
      "isTemplate": false,
      "count": 0
    },
    {
      "id": "6c3a1e03-1265-43a1-a2f4-6e0594a43eec",
      "data": [
        {
          "text": "George Clooney",
          "alias": "NinetiesCeleb",
          "meta": "@NinetiesCeleb",
          "userDefined": false
        }
      ],
      "isTemplate": false,
      "count": 0
    },
    {
      "id": "90646103-4448-4b50-9353-fae3a9cc2c9f",
      "data": [
        {
          "text": "John Stamos",
          "alias": "NinetiesCeleb",
          "meta": "@NinetiesCeleb",
          "userDefined": false
        }
      ],
      "isTemplate": false,
      "count": 0
    },
    {
      "id": "6eef05ee-7f1e-4b3f-a144-9bfb1039aaaa",
      "data": [
        {
          "text": "Matthew Fox",
          "alias": "NinetiesCeleb",
          "meta": "@NinetiesCeleb",
          "userDefined": false
        }
      ],
      "isTemplate": false,
      "count": 0
    },
    {
      "id": "9c492b6d-bbd9-4e65-a91f-76c8e90dfc03",
      "data": [
        {
          "text": "do you like "
        },
        {
          "text": "Paula Abdule",
          "alias": "NinetiesCeleb",
          "meta": "@NinetiesCeleb",
          "userDefined": false
        }
      ],
      "isTemplate": false,
      "count": 0
    },
    {
      "id": "1a18d6cf-04e2-47a2-a0e9-f5eb155b541c",
      "data": [
        {
          "text": "what do you think about "
        },
        {
          "text": "Paula Abdule",
          "alias": "NinetiesCeleb",
          "meta": "@NinetiesCeleb",
          "userDefined": false
        }
      ],
      "isTemplate": false,
      "count": 0
    },
    {
      "id": "6f893f05-9a4b-4e8a-bc22-94bfc4ef893d",
      "data": [
        {
          "text": "My favorite is "
        },
        {
          "text": "Paula Abdule",
          "alias": "NinetiesCeleb",
          "meta": "@NinetiesCeleb",
          "userDefined": false
        }
      ],
      "isTemplate": false,
      "count": 0
    },
    {
      "id": "42860b53-1e6e-4820-953c-18a624beb514",
      "data": [
        {
          "text": "I like "
        },
        {
          "text": "Paula Abdule",
          "alias": "NinetiesCeleb",
          "meta": "@NinetiesCeleb",
          "userDefined": false
        }
      ],
      "isTemplate": false,
      "count": 0
    },
    {
      "id": "99b3c2dd-a3a3-449a-94ba-172c4515b5c8",
      "data": [
        {
          "text": "Paula Abdule",
          "alias": "NinetiesCeleb",
          "meta": "@NinetiesCeleb",
          "userDefined": true
        }
      ],
      "isTemplate": false,
      "count": 0
    }
  ],
  "id": "09939bff-56ce-4e43-81b9-e381c7bea54a",
  "name": "Nineties - Celeb",
  "auto": true,
  "contexts": [],
  "responses": [
    {
      "resetContexts": false,
      "affectedContexts": [],
      "parameters": [
        {
          "dataType": "@NinetiesCeleb",
          "name": "NinetiesCeleb",
          "value": "$NinetiesCeleb",
          "isList": false
        }
      ],
      "messages": [
        {
          "type": 0,
          "speech": "$NinetiesCeleb is rad!"
        }
      ]
    }
  ],
  "priority": 500000,
  "webhookUsed": false,
  "webhookForSlotFilling": false,
  "fallbackIntent": false,
  "events": []
}