{
  "userSays": [
    {
      "id": "0b1d6a06-b7e0-4b6b-a482-effb35ed1273",
      "data": [
        {
          "text": "23602",
          "alias": "zip-code",
          "meta": "@sys.zip-code",
          "userDefined": false
        }
      ],
      "isTemplate": false,
      "count": 0
    },
    {
      "id": "903053b0-c7cf-4334-a044-64af1def5f59",
      "data": [
        {
          "text": "zipcode "
        },
        {
          "text": "10960",
          "alias": "zip-code",
          "meta": "@sys.zip-code",
          "userDefined": false
        }
      ],
      "isTemplate": false,
      "count": 0
    },
    {
      "id": "0f0a0996-3599-4f90-b5fc-67370232054f",
      "data": [
        {
          "text": "in "
        },
        {
          "text": "10960",
          "alias": "zip-code",
          "meta": "@sys.zip-code",
          "userDefined": false
        }
      ],
      "isTemplate": false,
      "count": 0
    },
    {
      "id": "f0729b8a-c7fc-4c4a-a227-c46696b23643",
      "data": [
        {
          "text": "I live in "
        },
        {
          "text": "10960",
          "alias": "zip-code",
          "meta": "@sys.zip-code",
          "userDefined": false
        }
      ],
      "isTemplate": false,
      "count": 0
    },
    {
      "id": "972027e4-6e17-4c26-a457-a5ec5c1c2a4f",
      "data": [
        {
          "text": "my zip is "
        },
        {
          "text": "10960",
          "alias": "zip-code",
          "meta": "@sys.zip-code",
          "userDefined": false
        }
      ],
      "isTemplate": false,
      "count": 0
    }
  ],
  "id": "11da1d78-b5a4-448b-a47e-0d6235d501ff",
  "name": "Other - Zipcode",
  "auto": true,
  "contexts": [],
  "responses": [
    {
      "resetContexts": false,
      "affectedContexts": [],
      "parameters": [
        {
          "dataType": "@sys.zip-code",
          "name": "zip-code",
          "value": "$zip-code",
          "isList": false
        }
      ],
      "messages": [
        {
          "type": 0,
          "speech": [
            "please try giving me the zip by itself",
            "just the zip please"
          ]
        }
      ]
    }
  ],
  "priority": 500000,
  "webhookUsed": false,
  "webhookForSlotFilling": false,
  "fallbackIntent": false,
  "events": []
}