{
  "userSays": [
    {
      "id": "f0690eca-a06c-46ba-8b89-af4071c15c1a",
      "data": [
        {
          "text": "flat beer"
        }
      ],
      "isTemplate": false,
      "count": 0
    },
    {
      "id": "3afb9fa3-dc5b-4f9c-96f6-5b4ca43a2229",
      "data": [
        {
          "text": "flat bottle"
        }
      ],
      "isTemplate": false,
      "count": 0
    }
  ],
  "id": "f1738b6e-8422-4f19-a593-7a80b660dd41",
  "name": "Prod Concern -  Flat",
  "auto": true,
  "contexts": [],
  "responses": [
    {
      "resetContexts": false,
      "affectedContexts": [],
      "parameters": [],
      "messages": [
        {
          "type": 0,
          "speech": "A flat beer is no fun. We want to fix this, give us a call at 1 800-MILLER-6."
        }
      ]
    }
  ],
  "priority": 500000,
  "webhookUsed": false,
  "webhookForSlotFilling": false,
  "fallbackIntent": false,
  "events": []
}