{
  "userSays": [
    {
      "id": "0b3e4bf2-fb14-4d73-bddf-455b2d3459f1",
      "data": [
        {
          "text": "there is glass in the can"
        }
      ],
      "isTemplate": false,
      "count": 0
    },
    {
      "id": "078b9dfc-2983-4608-93c4-252f39e21ca2",
      "data": [
        {
          "text": "there is glass in the bottle"
        }
      ],
      "isTemplate": false,
      "count": 0
    },
    {
      "id": "dce596c0-29a5-4900-a863-cb808e957c7d",
      "data": [
        {
          "text": "i found glass"
        }
      ],
      "isTemplate": false,
      "count": 0
    },
    {
      "id": "b1fbb1ae-7ca1-4cec-a4df-6e0a035952dc",
      "data": [
        {
          "text": "glass in soda"
        }
      ],
      "isTemplate": false,
      "count": 0
    }
  ],
  "id": "d77bf517-e338-4961-bcd6-53519b2fe2b6",
  "name": "Prod Concern -  Glass",
  "auto": true,
  "contexts": [],
  "responses": [
    {
      "resetContexts": false,
      "affectedContexts": [],
      "parameters": [],
      "messages": [
        {
          "type": 0,
          "speech": "Thank you for bringing this to our attention. We take this issue very seriously. Please contact us at 1-800-645-5376 so we can properly escalate this issue."
        }
      ],
      "defaultResponsePlatforms": {
        "facebook": true
      }
    }
  ],
  "priority": 500000,
  "webhookUsed": false,
  "webhookForSlotFilling": false,
  "fallbackIntent": false,
  "events": []
}