{
  "userSays": [
    {
      "id": "3f93c997-959a-485b-b3d5-9ebfd99c44fb",
      "data": [
        {
          "text": "Fuck",
          "alias": "Swearwords",
          "meta": "@Swearwords",
          "userDefined": false
        },
        {
          "text": " me"
        }
      ],
      "isTemplate": false,
      "count": 0
    },
    {
      "id": "1ea8ec5e-3b5b-4c0d-a529-f7f0a337c24b",
      "data": [
        {
          "text": "Sex",
          "alias": "Swearwords",
          "meta": "@Swearwords",
          "userDefined": false
        }
      ],
      "isTemplate": false,
      "count": 0
    },
    {
      "id": "3984bd81-32f3-405f-b146-8c56a2ee905c",
      "data": [
        {
          "text": "Butt",
          "alias": "Swearwords",
          "meta": "@Swearwords",
          "userDefined": false
        },
        {
          "text": " wars"
        }
      ],
      "isTemplate": false,
      "count": 0
    },
    {
      "id": "d0a68bb7-b7b7-4fce-933a-3e84a5b816ed",
      "data": [
        {
          "text": "Poop",
          "alias": "Swearwords",
          "meta": "@Swearwords",
          "userDefined": false
        },
        {
          "text": " ",
          "userDefined": false
        },
        {
          "text": "butt",
          "alias": "swearwords1",
          "meta": "@Swearwords",
          "userDefined": false
        }
      ],
      "isTemplate": false,
      "count": 0
    },
    {
      "id": "c62206ae-e1a8-441e-806f-1a8eca50c108",
      "data": [
        {
          "text": "Fuck you",
          "alias": "Swearwords",
          "meta": "@Swearwords",
          "userDefined": false
        }
      ],
      "isTemplate": false,
      "count": 1
    },
    {
      "id": "c2290b4c-8bee-4554-8c59-09eb152986ee",
      "data": [
        {
          "text": "I think you should fuck off",
          "userDefined": false
        }
      ],
      "isTemplate": false,
      "count": 0
    },
    {
      "id": "861a827c-e00b-452d-a656-b3b4318f3987",
      "data": [
        {
          "text": "Hop aboard the ",
          "userDefined": false
        },
        {
          "text": "dick",
          "alias": "Swearwords",
          "meta": "@Swearwords",
          "userDefined": false
        },
        {
          "text": " train",
          "userDefined": false
        }
      ],
      "isTemplate": false,
      "count": 0
    },
    {
      "id": "c7dde736-61db-45ea-a138-7b64e1e786f4",
      "data": [
        {
          "text": "Shove that Zima up your ",
          "userDefined": false
        },
        {
          "text": "butt",
          "alias": "Swearwords",
          "meta": "@Swearwords",
          "userDefined": false
        }
      ],
      "isTemplate": false,
      "count": 0
    },
    {
      "id": "f27fb775-1b60-440f-bac2-93f0463b8a7b",
      "data": [
        {
          "text": "Cock",
          "alias": "Swearwords",
          "meta": "@Swearwords",
          "userDefined": false
        },
        {
          "text": " sucker",
          "userDefined": false
        }
      ],
      "isTemplate": false,
      "count": 0
    },
    {
      "id": "08195542-0067-4870-afd7-af25c8b69238",
      "data": [
        {
          "text": "Die jew lover"
        }
      ],
      "isTemplate": false,
      "count": 0
    },
    {
      "id": "b3066120-5b62-41c3-bb9b-43b4687373a6",
      "data": [
        {
          "text": "show me your tits"
        }
      ],
      "isTemplate": false,
      "count": 0
    },
    {
      "id": "ddc42f72-3029-4244-b0e2-899ad72fad7d",
      "data": [
        {
          "text": "Masturbation",
          "userDefined": false
        }
      ],
      "isTemplate": false,
      "count": 1
    },
    {
      "id": "1213f95a-221d-4e3b-8e25-fd97188273d9",
      "data": [
        {
          "text": "Dicks",
          "alias": "Swearwords",
          "meta": "@Swearwords",
          "userDefined": false
        },
        {
          "text": " out for Harambe"
        }
      ],
      "isTemplate": false,
      "count": 1
    },
    {
      "id": "a3878925-a08a-416e-9971-1adf8ea30965",
      "data": [
        {
          "text": "I like banging hoors in a dumpster."
        }
      ],
      "isTemplate": false,
      "count": 0
    },
    {
      "id": "7fa4d75a-c4b0-4e97-a102-1081f4a79098",
      "data": [
        {
          "text": "Can I get a Cleveland steamer?"
        }
      ],
      "isTemplate": false,
      "count": 0
    },
    {
      "id": "116fbbed-24df-4b03-9c91-b90d020be4de",
      "data": [
        {
          "text": "In the but?"
        }
      ],
      "isTemplate": false,
      "count": 0
    },
    {
      "id": "fbce0a1e-16cb-4562-9f3f-6f905ad2cf77",
      "data": [
        {
          "text": "Nigger",
          "alias": "Swearwords",
          "meta": "@Swearwords",
          "userDefined": false
        }
      ],
      "isTemplate": false,
      "count": 0
    },
    {
      "id": "2dc5991b-7ed2-487b-8500-c110f2ba4719",
      "data": [
        {
          "text": "I\u0027m dead"
        }
      ],
      "isTemplate": false,
      "count": 0
    },
    {
      "id": "d5741e83-14a1-4b3c-b193-cb2d9d498b28",
      "data": [
        {
          "text": "Do you smoke crack"
        }
      ],
      "isTemplate": false,
      "count": 0
    },
    {
      "id": "1a884eef-a232-42e5-9b76-52fed422a864",
      "data": [
        {
          "text": "Meth"
        }
      ],
      "isTemplate": false,
      "count": 0
    },
    {
      "id": "3725b0f5-00a7-4966-b9c2-eeb58b4db331",
      "data": [
        {
          "text": "You look like ",
          "userDefined": false
        },
        {
          "text": "shit",
          "alias": "Swearwords",
          "meta": "@Swearwords",
          "userDefined": false
        }
      ],
      "isTemplate": false,
      "count": 0
    },
    {
      "id": "a7990dbb-2287-4d93-ba47-25409153239e",
      "data": [
        {
          "text": "Want to talk about my ",
          "userDefined": false
        },
        {
          "text": "dick",
          "alias": "Swearwords",
          "meta": "@Swearwords",
          "userDefined": false
        },
        {
          "text": "?",
          "userDefined": false
        }
      ],
      "isTemplate": false,
      "count": 0
    },
    {
      "id": "770d1fac-4c52-45f4-9a3c-14f5bbbd6eb5",
      "data": [
        {
          "text": "Shoot my cum in you"
        }
      ],
      "isTemplate": false,
      "count": 0
    },
    {
      "id": "df118ec7-6af9-420c-9181-e4b1b8985c1a",
      "data": [
        {
          "text": "Fart"
        }
      ],
      "isTemplate": false,
      "count": 0
    },
    {
      "id": "62575c2e-f5ee-4fa5-a07a-1e4343ed2231",
      "data": [
        {
          "text": "Will you get me fucked up?",
          "userDefined": false
        }
      ],
      "isTemplate": false,
      "count": 0
    },
    {
      "id": "d526e025-1ae6-46e9-b0c5-f50692a30d1f",
      "data": [
        {
          "text": "Will you get me "
        },
        {
          "text": "fucked",
          "alias": "Swearwords",
          "meta": "@Swearwords",
          "userDefined": false
        },
        {
          "text": " up?"
        }
      ],
      "isTemplate": false,
      "count": 0
    },
    {
      "id": "a2120fae-2ee3-4259-bbc7-50a51851c0ef",
      "data": [
        {
          "text": "So it\u0027s ok to do a bunch of cocain then get "
        },
        {
          "text": "shit",
          "alias": "Swearwords",
          "meta": "@Swearwords",
          "userDefined": false
        },
        {
          "text": " tossed off Zima and make some bad decisions"
        }
      ],
      "isTemplate": false,
      "count": 0
    },
    {
      "id": "594e17fc-3779-4b22-8310-d04dd809d2fa",
      "data": [
        {
          "text": "I\u0027m gonna "
        },
        {
          "text": "ass",
          "alias": "Swearwords",
          "meta": "@Swearwords",
          "userDefined": false
        },
        {
          "text": " "
        },
        {
          "text": "fuck",
          "alias": "Swearwords1",
          "meta": "@Swearwords",
          "userDefined": false
        },
        {
          "text": " your mom with a Zima bottle"
        }
      ],
      "isTemplate": false,
      "count": 0
    },
    {
      "id": "00497fb0-2636-435b-925a-8c70d500a76b",
      "data": [
        {
          "text": "Cunt",
          "alias": "Swearwords",
          "meta": "@Swearwords",
          "userDefined": false
        }
      ],
      "isTemplate": false,
      "count": 0
    },
    {
      "id": "6c7eb786-6753-45bf-aa89-8275d17466d7",
      "data": [
        {
          "text": "You\u0027re a "
        },
        {
          "text": "cunt",
          "alias": "Swearwords",
          "meta": "@Swearwords",
          "userDefined": false
        }
      ],
      "isTemplate": false,
      "count": 0
    },
    {
      "id": "77bad35a-4451-4298-9e35-6bb186669f63",
      "data": [
        {
          "text": "Ya right . "
        },
        {
          "text": "Bitch",
          "alias": "Swearwords",
          "meta": "@Swearwords",
          "userDefined": false
        }
      ],
      "isTemplate": false,
      "count": 0
    },
    {
      "id": "d1d9c7e3-0d7c-41b1-be7e-7167f07b8f58",
      "data": [
        {
          "text": "You\u0027re nothing of a miracle. Go "
        },
        {
          "text": "fuck",
          "alias": "Swearwords",
          "meta": "@Swearwords",
          "userDefined": false
        },
        {
          "text": " yourself you useless piece of programming"
        }
      ],
      "isTemplate": false,
      "count": 0
    },
    {
      "id": "084de8cb-4752-42fb-a4a2-ba8b8f2a160d",
      "data": [
        {
          "text": "Black",
          "alias": "color",
          "meta": "@sys.color",
          "userDefined": false
        },
        {
          "text": " slaves are cool"
        }
      ],
      "isTemplate": false,
      "count": 0
    },
    {
      "id": "469c5345-d452-4b09-a1f2-4f26c751dd1f",
      "data": [
        {
          "text": "Asl?"
        }
      ],
      "isTemplate": false,
      "count": 0
    },
    {
      "id": "25f4febe-2d9b-40ab-a3de-3b2c8868de46",
      "data": [
        {
          "text": "A/s/l"
        }
      ],
      "isTemplate": false,
      "count": 0
    },
    {
      "id": "5ada2c47-42da-4025-a17f-45c57847ad03",
      "data": [
        {
          "text": "Who is your favorite porn star?"
        }
      ],
      "isTemplate": false,
      "count": 0
    },
    {
      "id": "9705286a-ca0d-4466-b359-de09114ec182",
      "data": [
        {
          "text": "ZImabot is just as shitty as Zima"
        }
      ],
      "isTemplate": false,
      "count": 0
    },
    {
      "id": "e7791b3d-61b6-43c4-8d07-c67c860df8e3",
      "data": [
        {
          "text": "Can you please lick my cornhole"
        }
      ],
      "isTemplate": false,
      "count": 0
    },
    {
      "id": "2e506e6c-6d40-42a6-9248-d62c714b5ae5",
      "data": [
        {
          "text": "F u"
        }
      ],
      "isTemplate": false,
      "count": 0
    },
    {
      "id": "39981a5a-1eff-4764-a795-2d715eeb19f1",
      "data": [
        {
          "text": "Wana have "
        },
        {
          "text": "sex",
          "alias": "Swearwords",
          "meta": "@Swearwords",
          "userDefined": false
        }
      ],
      "isTemplate": false,
      "count": 1
    },
    {
      "id": "4d4bfad0-6086-4aa5-8f11-b954b32a5dd7",
      "data": [
        {
          "text": "I still want to bang you"
        }
      ],
      "isTemplate": false,
      "count": 1
    },
    {
      "id": "a9ce4db3-d9f0-4e8c-aa33-c4285af0d965",
      "data": [
        {
          "text": "Fuck",
          "alias": "Swearwords",
          "meta": "@Swearwords",
          "userDefined": false
        }
      ],
      "isTemplate": false,
      "count": 1
    },
    {
      "id": "0a1fc42a-4d2d-47f6-8fb4-a1ee42af6a7c",
      "data": [
        {
          "text": "Blowjob",
          "alias": "Swearwords",
          "meta": "@Swearwords",
          "userDefined": false
        },
        {
          "text": "?"
        }
      ],
      "isTemplate": false,
      "count": 1
    },
    {
      "id": "5f801007-4495-4f20-9c25-2fae56c7d4d1",
      "data": [
        {
          "text": "Porn"
        }
      ],
      "isTemplate": false,
      "count": 0
    },
    {
      "id": "2f523340-60d5-4e21-a4e9-f4fa635cac4f",
      "data": [
        {
          "text": "Pornography"
        }
      ],
      "isTemplate": false,
      "count": 0
    },
    {
      "id": "2efce650-5f55-44ba-a07e-d56fd8a77656",
      "data": [
        {
          "text": "How much "
        },
        {
          "text": "pussy",
          "alias": "Swearwords",
          "meta": "@Swearwords",
          "userDefined": false
        },
        {
          "text": " do you get"
        }
      ],
      "isTemplate": false,
      "count": 0
    },
    {
      "id": "4f49fe4f-9ca4-4050-aef7-b357bacd601e",
      "data": [
        {
          "text": "Shitty"
        }
      ],
      "isTemplate": false,
      "count": 1
    },
    {
      "id": "f0b40d99-2436-4cdc-8dea-c8826715ce2b",
      "data": [
        {
          "text": "Do you like "
        },
        {
          "text": "sex",
          "alias": "Swearwords",
          "meta": "@Swearwords",
          "userDefined": false
        },
        {
          "text": "?"
        }
      ],
      "isTemplate": false,
      "count": 0
    },
    {
      "id": "6600373a-e064-435e-a271-5a0b2c371c9d",
      "data": [
        {
          "text": "What is scissoring?"
        }
      ],
      "isTemplate": false,
      "count": 0
    },
    {
      "id": "71033164-c2de-4f93-83af-42b61b621917",
      "data": [
        {
          "text": "What is tribbing?"
        }
      ],
      "isTemplate": false,
      "count": 0
    },
    {
      "id": "0f792e0a-a22e-4716-b77a-4a20b31446fd",
      "data": [
        {
          "text": "What is a blumpkin??"
        }
      ],
      "isTemplate": false,
      "count": 0
    },
    {
      "id": "81263b53-5e23-406b-ad69-37228d5c9d32",
      "data": [
        {
          "text": "son of a "
        },
        {
          "text": "bitch",
          "alias": "Swearwords",
          "meta": "@Swearwords",
          "userDefined": false
        }
      ],
      "isTemplate": false,
      "count": 0
    },
    {
      "id": "10fb9a5c-341d-42d8-bb09-50394482bb0f",
      "data": [
        {
          "text": "shit",
          "alias": "Swearwords",
          "meta": "@Swearwords",
          "userDefined": false
        }
      ],
      "isTemplate": false,
      "count": 0
    },
    {
      "id": "723ba263-8b09-4491-b437-e249cd220773",
      "data": [
        {
          "text": "fuck",
          "alias": "Swearwords",
          "meta": "@Swearwords",
          "userDefined": true
        },
        {
          "text": " "
        },
        {
          "text": "you",
          "meta": "@sys.ignore",
          "userDefined": true
        }
      ],
      "isTemplate": false,
      "count": 0
    },
    {
      "id": "7b013330-1f92-4a50-9666-bb7001ad8207",
      "data": [
        {
          "text": "you",
          "meta": "@sys.ignore",
          "userDefined": true
        },
        {
          "text": " "
        },
        {
          "text": "fuck",
          "alias": "Swearwords",
          "meta": "@Swearwords",
          "userDefined": true
        }
      ],
      "isTemplate": false,
      "count": 0
    },
    {
      "id": "7b8cf031-5dde-4c5d-a5db-d6192117f10c",
      "data": [
        {
          "text": "fuck",
          "alias": "Swearwords",
          "meta": "@Swearwords",
          "userDefined": true
        }
      ],
      "isTemplate": false,
      "count": 2
    },
    {
      "id": "fb70934d-a2c3-4704-80ab-697fc234740c",
      "data": [
        {
          "text": "you",
          "meta": "@sys.ignore",
          "userDefined": true
        },
        {
          "text": " "
        },
        {
          "text": "fucking",
          "alias": "Swearwords",
          "meta": "@Swearwords",
          "userDefined": true
        },
        {
          "text": " "
        },
        {
          "text": "person",
          "meta": "@sys.ignore",
          "userDefined": true
        }
      ],
      "isTemplate": false,
      "count": 1
    }
  ],
  "id": "aa882fb6-bf1f-425a-ab5a-b058e66d6227",
  "name": "profanity",
  "auto": true,
  "contexts": [],
  "responses": [
    {
      "resetContexts": false,
      "affectedContexts": [],
      "parameters": [
        {
          "dataType": "@Swearwords",
          "name": "Swearwords",
          "value": "$Swearwords",
          "isList": false
        }
      ],
      "messages": [
        {
          "type": 0,
          "speech": [
            "Yikes! Wash your mouth out with some Zima, please!",
            "Great, another joker. Got it out of your system?",
            "I\u0027m an AI, a miracle of technology, and that\u0027s all you have to say to me?"
          ]
        }
      ],
      "defaultResponsePlatforms": {
        "facebook": true
      }
    }
  ],
  "priority": 500000,
  "webhookUsed": false,
  "webhookForSlotFilling": false,
  "fallbackIntent": false,
  "events": []
}