{
  "userSays": [
    {
      "id": "51e6ae88-663b-45c8-8722-34d5bfb6e812",
      "data": [
        {
          "text": "Zima tastes just like I remembered!"
        }
      ],
      "isTemplate": false,
      "count": 0
    },
    {
      "id": "ff7faaa9-1c16-4c5c-9e9f-6fcd6f6fb47f",
      "data": [
        {
          "text": "I love zima"
        }
      ],
      "isTemplate": false,
      "count": 1
    },
    {
      "id": "7c0dd21f-512e-4d45-8c22-41a17695f19e",
      "data": [
        {
          "text": "Zima was amazing"
        }
      ],
      "isTemplate": false,
      "count": 1
    },
    {
      "id": "65f84aa2-cd79-4ad7-a144-11dfba90c24d",
      "data": [
        {
          "text": "I like you"
        }
      ],
      "isTemplate": false,
      "count": 0
    },
    {
      "id": "56e889e6-bb01-44d0-8270-077cc5a33d50",
      "data": [
        {
          "text": "Zima rocks"
        }
      ],
      "isTemplate": false,
      "count": 0
    },
    {
      "id": "f47662e9-3054-42f7-94cd-4d6e19c57fe9",
      "data": [
        {
          "text": "I love Zima"
        }
      ],
      "isTemplate": false,
      "count": 0
    },
    {
      "id": "0b897c57-f4ce-445a-9ce3-a52c1481a26a",
      "data": [
        {
          "text": "The Zima club"
        }
      ],
      "isTemplate": false,
      "count": 0
    },
    {
      "id": "9766a90f-2a69-4e4d-99a7-0bf072f565e2",
      "data": [
        {
          "text": "Please do not disappear again"
        }
      ],
      "isTemplate": false,
      "count": 0
    },
    {
      "id": "ed1289b5-b9c0-46e7-a1b1-9296028fc903",
      "data": [
        {
          "text": "Zima is awesome"
        }
      ],
      "isTemplate": false,
      "count": 0
    },
    {
      "id": "915a1816-b70d-405d-9317-e8cd8592a6fd",
      "data": [
        {
          "text": "Zima is rad"
        }
      ],
      "isTemplate": false,
      "count": 0
    },
    {
      "id": "685f63d1-a05f-45f1-a3ca-9b436e3680c5",
      "data": [
        {
          "text": "Zima is greate"
        }
      ],
      "isTemplate": false,
      "count": 0
    },
    {
      "id": "d7fe0497-2239-444e-b6d3-a03219e7461e",
      "data": [
        {
          "text": "Zima is good"
        }
      ],
      "isTemplate": false,
      "count": 0
    }
  ],
  "id": "f9467277-07b3-4cfe-91c0-4e7e2bcfec11",
  "name": "Random - Love",
  "auto": true,
  "contexts": [],
  "responses": [
    {
      "resetContexts": false,
      "affectedContexts": [],
      "parameters": [],
      "messages": [
        {
          "type": 0,
          "speech": [
            "Thanks!",
            "👏 👏 👏",
            "👌",
            "🙌",
            "💪",
            "[img]https://media.giphy.com/media/pa37AAGzKXoek/giphy.gif[/img]",
            "[img]https://media.giphy.com/media/d35xK3erjHHudXYQ/giphy.gif[/img]",
            "[img]https://media.giphy.com/media/QaMgH3hvgoN8I/giphy.gif[/img]",
            "[img]https://media.giphy.com/media/TigIRrb5A8Ew/giphy.gif[/img]",
            "[img]https://media.giphy.com/media/wnN1FibtPtFoA/giphy.gif[/img]",
            "[img]https://media.giphy.com/media/ggKMDmjkGZ5ZK/giphy.gif[/img]",
            "[img]https://media.giphy.com/media/4b3NTkMwIn5Zu/giphy.gif[/img]",
            "[img]https://media.giphy.com/media/P8XL2tIndyLss/giphy.gif[/img]",
            "[img]https://media.giphy.com/media/O1WrECCrhSpWg/giphy.gif[/img]",
            "[img]https://media.giphy.com/media/Kzvsru1JqQg4E/giphy.gif[/img]"
          ]
        }
      ]
    }
  ],
  "priority": 500000,
  "webhookUsed": false,
  "webhookForSlotFilling": false,
  "fallbackIntent": false,
  "events": []
}