{
  "userSays": [
    {
      "id": "e87e2135-ecec-4e57-976c-5b9c6df4a28d",
      "data": [
        {
          "text": "Random - Computer"
        }
      ],
      "isTemplate": false,
      "count": 0
    }
  ],
  "id": "cadabc5f-4987-4e9e-a84d-7d9e97739f38",
  "name": "Random - Computer",
  "auto": true,
  "contexts": [],
  "responses": [
    {
      "resetContexts": false,
      "affectedContexts": [],
      "parameters": [],
      "messages": [
        {
          "type": 0,
          "speech": "Yeah, I think so ..."
        }
      ],
      "defaultResponsePlatforms": {
        "facebook": true
      }
    }
  ],
  "priority": 500000,
  "webhookUsed": false,
  "webhookForSlotFilling": false,
  "fallbackIntent": false,
  "events": []
}