{
  "userSays": [
    {
      "id": "cc7cbb62-3cbf-4cb3-b308-d21485c9aec3",
      "data": [
        {
          "text": "?"
        }
      ],
      "isTemplate": false,
      "count": 0
    },
    {
      "id": "341c07b3-1dc6-494c-a4db-b91a1dd22740",
      "data": [
        {
          "text": "??"
        }
      ],
      "isTemplate": false,
      "count": 0
    },
    {
      "id": "12273070-6a5e-4f44-b110-e45529eae150",
      "data": [
        {
          "text": "What does rad mean?",
          "userDefined": false
        }
      ],
      "isTemplate": false,
      "count": 0
    },
    {
      "id": "e4f136f4-e807-489e-af23-83743d01536e",
      "data": [
        {
          "text": "What do you mean?"
        }
      ],
      "isTemplate": false,
      "count": 0
    }
  ],
  "id": "53118b23-1652-4be1-8cdf-b8a70f203dd2",
  "name": "Random - What you mean",
  "auto": true,
  "contexts": [],
  "responses": [
    {
      "resetContexts": false,
      "affectedContexts": [],
      "parameters": [],
      "messages": [
        {
          "type": 0,
          "speech": "We seem to have gotten our signals crossed! I\u0027m still learning how to do this!"
        }
      ]
    }
  ],
  "priority": 500000,
  "webhookUsed": false,
  "webhookForSlotFilling": false,
  "fallbackIntent": false,
  "events": []
}