{
  "userSays": [
    {
      "id": "1bc1ab84-bb6a-4207-a071-62e69cf18dfd",
      "data": [
        {
          "text": "Is it good"
        }
      ],
      "isTemplate": false,
      "count": 0
    },
    {
      "id": "eb5de43e-84ff-4f7e-ae0f-5da90a41fb84",
      "data": [
        {
          "text": "Far out dude"
        }
      ],
      "isTemplate": false,
      "count": 1
    },
    {
      "id": "6a1d0c66-e5e5-4db2-be0f-e3c14ac26db8",
      "data": [
        {
          "text": "what do you like"
        }
      ],
      "isTemplate": false,
      "count": 0
    },
    {
      "id": "0015f2bf-c451-4af1-b99f-f38f810a27ba",
      "data": [
        {
          "text": "will I like it"
        }
      ],
      "isTemplate": false,
      "count": 0
    },
    {
      "id": "a11d3ed4-88e2-47dc-b2fe-dcecb0c50531",
      "data": [
        {
          "text": "I Zima Good"
        }
      ],
      "isTemplate": false,
      "count": 0
    },
    {
      "id": "63438487-6dd3-42c2-a923-0527e1823e97",
      "data": [
        {
          "text": "Will I like Zima"
        }
      ],
      "isTemplate": false,
      "count": 0
    },
    {
      "id": "86516b7e-3d71-4e84-bc20-970d1f603878",
      "data": [
        {
          "text": "do you like Zima"
        }
      ],
      "isTemplate": false,
      "count": 0
    }
  ],
  "id": "a2de22ca-e7df-44c8-829b-ecf2d0fdefa0",
  "name": "Random - Like",
  "auto": true,
  "contexts": [],
  "responses": [
    {
      "resetContexts": false,
      "affectedContexts": [],
      "parameters": [],
      "messages": [
        {
          "type": 0,
          "speech": [
            "I like Zima!",
            "",
            ""
          ]
        }
      ]
    }
  ],
  "priority": 500000,
  "webhookUsed": false,
  "webhookForSlotFilling": false,
  "fallbackIntent": false,
  "events": []
}