{
  "userSays": [
    {
      "id": "0c1fe534-0033-4fde-a682-47532cf137b8",
      "data": [
        {
          "text": "Omg"
        }
      ],
      "isTemplate": false,
      "count": 0
    },
    {
      "id": "092a84a8-45ca-4a29-b480-98aad6a78700",
      "data": [
        {
          "text": "You make "
        },
        {
          "text": "miller",
          "alias": "given-name",
          "meta": "@sys.given-name",
          "userDefined": false
        }
      ],
      "isTemplate": false,
      "count": 0
    },
    {
      "id": "39ef25bd-4920-4653-afd2-a75919398978",
      "data": [
        {
          "text": "Wow"
        }
      ],
      "isTemplate": false,
      "count": 0
    },
    {
      "id": "9a946541-068d-45b6-837e-03a319711f00",
      "data": [
        {
          "text": "lets party"
        }
      ],
      "isTemplate": false,
      "count": 1
    },
    {
      "id": "53b3b1c2-a9e4-4ee9-9f40-7bc17ce3c3b3",
      "data": [
        {
          "text": "Yay"
        }
      ],
      "isTemplate": false,
      "count": 0
    },
    {
      "id": "d64c2287-8c01-4c95-aac2-7cf75f060b76",
      "data": [
        {
          "text": "Yay!"
        }
      ],
      "isTemplate": false,
      "count": 0
    }
  ],
  "id": "ca158140-4997-497d-9d22-005e59f4700d",
  "name": "Random - Celebrate",
  "auto": true,
  "contexts": [],
  "responses": [
    {
      "resetContexts": false,
      "affectedContexts": [],
      "parameters": [],
      "messages": [
        {
          "type": 0,
          "speech": "👏👏👏"
        }
      ]
    }
  ],
  "priority": 500000,
  "webhookUsed": false,
  "webhookForSlotFilling": false,
  "fallbackIntent": false,
  "events": []
}