{
  "userSays": [
    {
      "id": "5f6ae672-fc83-4eb6-92d6-1a22cd309f7c",
      "data": [
        {
          "text": "Who is better, "
        },
        {
          "text": "LeBron",
          "alias": "given-name",
          "meta": "@sys.given-name",
          "userDefined": false
        },
        {
          "text": " "
        },
        {
          "text": "James",
          "alias": "last-name",
          "meta": "@sys.last-name",
          "userDefined": false
        },
        {
          "text": " or "
        },
        {
          "text": "Michael",
          "alias": "geo-city",
          "meta": "@sys.geo-city",
          "userDefined": false
        },
        {
          "text": " "
        },
        {
          "text": "Jordan",
          "alias": "geo-country",
          "meta": "@sys.geo-country",
          "userDefined": false
        },
        {
          "text": "?"
        }
      ],
      "isTemplate": false,
      "count": 0
    }
  ],
  "id": "e8d30edd-708d-4fe1-af05-b7e3080adbdd",
  "name": "Random - Person",
  "auto": true,
  "contexts": [],
  "responses": [
    {
      "resetContexts": false,
      "affectedContexts": [],
      "parameters": [
        {
          "dataType": "@sys.given-name",
          "name": "given-name",
          "value": "$given-name",
          "isList": false
        },
        {
          "dataType": "@sys.last-name",
          "name": "last-name",
          "value": "$last-name",
          "isList": false
        },
        {
          "dataType": "@sys.geo-city",
          "name": "geo-city",
          "value": "$geo-city",
          "isList": false
        },
        {
          "dataType": "@sys.geo-country",
          "name": "geo-country",
          "value": "$geo-country",
          "isList": false
        }
      ],
      "messages": [
        {
          "type": 0,
          "speech": "Hmmm, I don\u0027t know who $given-name $last-name is."
        }
      ],
      "defaultResponsePlatforms": {
        "facebook": true
      }
    }
  ],
  "priority": 500000,
  "webhookUsed": false,
  "webhookForSlotFilling": false,
  "fallbackIntent": false,
  "events": []
}