{
  "userSays": [
    {
      "id": "a7fa8535-e366-4633-90a3-a19519df4ffe",
      "data": [
        {
          "text": "Stop!"
        }
      ],
      "isTemplate": false,
      "count": 0
    }
  ],
  "id": "5462b29b-bd52-4e1a-9a31-b196d0532038",
  "name": "Random - Stop",
  "auto": true,
  "contexts": [],
  "responses": [
    {
      "resetContexts": false,
      "affectedContexts": [],
      "parameters": [],
      "messages": [
        {
          "type": 0,
          "speech": [
            "You stop!",
            "ok",
            "no problem"
          ]
        }
      ]
    }
  ],
  "priority": 500000,
  "webhookUsed": false,
  "webhookForSlotFilling": false,
  "fallbackIntent": false,
  "events": []
}