{
  "userSays": [
    {
      "id": "24e9dd69-942c-4158-8c3b-c21041172472",
      "data": [
        {
          "text": "let\u0027s party"
        }
      ],
      "isTemplate": false,
      "count": 0
    }
  ],
  "id": "f6c6adce-bf58-472b-80f1-d429940efe85",
  "name": "Random - Party",
  "auto": true,
  "contexts": [],
  "responses": [
    {
      "resetContexts": false,
      "affectedContexts": [],
      "parameters": [],
      "messages": [
        {
          "type": 0,
          "speech": [
            "Party on!",
            "P. A. R. T. Y."
          ]
        }
      ]
    }
  ],
  "priority": 500000,
  "webhookUsed": false,
  "webhookForSlotFilling": false,
  "fallbackIntent": false,
  "events": []
}