{
  "userSays": [
    {
      "id": "37482e8f-1758-49b9-944a-51a16d992722",
      "data": [
        {
          "text": "Were the 90s cool"
        }
      ],
      "isTemplate": false,
      "count": 1
    },
    {
      "id": "6de0a349-2abd-411b-b4da-3eba745a9f03",
      "data": [
        {
          "text": "90s",
          "alias": "date-period",
          "meta": "@sys.date-period",
          "userDefined": false
        }
      ],
      "isTemplate": false,
      "count": 1
    },
    {
      "id": "6db0cb1a-34af-4e0e-8d57-8a5189b2dd89",
      "data": [
        {
          "text": "Did you have tv back then"
        }
      ],
      "isTemplate": false,
      "count": 0
    },
    {
      "id": "07345641-968c-4971-a823-f6947e6c63b6",
      "data": [
        {
          "text": "so "
        },
        {
          "text": "nineties",
          "meta": "@sys.ignore",
          "userDefined": false
        }
      ],
      "isTemplate": false,
      "count": 0
    },
    {
      "id": "a1db6181-e4a7-4845-bbe1-d2e095a3f291",
      "data": [
        {
          "text": "it\u0027s "
        },
        {
          "text": "so 90\u0027s",
          "meta": "@sys.ignore",
          "userDefined": false
        }
      ],
      "isTemplate": false,
      "count": 0
    },
    {
      "id": "55ad3b11-14e4-49a3-ab40-05453ade2582",
      "data": [
        {
          "text": "that\u0027s so "
        },
        {
          "text": "90\u0027s",
          "meta": "@sys.ignore",
          "userDefined": false
        }
      ],
      "isTemplate": false,
      "count": 0
    },
    {
      "id": "1522a284-7fbd-496f-88fb-00d44a7017e4",
      "data": [
        {
          "text": "So 90\u0027s",
          "meta": "@sys.ignore",
          "userDefined": false
        }
      ],
      "isTemplate": false,
      "count": 0
    }
  ],
  "id": "e702ed4d-1819-462b-a7f0-5a81ab264e25",
  "name": "Random - 90s",
  "auto": true,
  "contexts": [],
  "responses": [
    {
      "resetContexts": false,
      "affectedContexts": [],
      "parameters": [],
      "messages": [
        {
          "type": 0,
          "speech": [
            "Yup",
            "Yes it is!",
            "Yeah, Modern"
          ]
        }
      ],
      "defaultResponsePlatforms": {
        "facebook": true
      }
    }
  ],
  "priority": 500000,
  "webhookUsed": false,
  "webhookForSlotFilling": false,
  "fallbackIntent": false,
  "events": []
}