{
  "userSays": [
    {
      "id": "9eb8fe73-408c-494d-b097-aecd14bed196",
      "data": [
        {
          "text": "Don\u0027t know"
        }
      ],
      "isTemplate": false,
      "count": 0
    },
    {
      "id": "6a0dd041-3d76-4171-a984-dca065fca75d",
      "data": [
        {
          "text": "I don\u0027t know"
        }
      ],
      "isTemplate": false,
      "count": 1
    },
    {
      "id": "9b68fff9-c923-45ee-82be-ffd40aaa2618",
      "data": [
        {
          "text": "I don\u0027t know who that is"
        }
      ],
      "isTemplate": false,
      "count": 0
    },
    {
      "id": "537ef023-a7f3-47af-811e-04b82ba62bff",
      "data": [
        {
          "text": "no idea"
        }
      ],
      "isTemplate": false,
      "count": 0
    }
  ],
  "id": "bed5364a-576e-457f-a76a-cf6e8456e4e2",
  "name": "Random - don\u0027t know",
  "auto": true,
  "contexts": [],
  "responses": [
    {
      "resetContexts": false,
      "affectedContexts": [],
      "parameters": [],
      "messages": [
        {
          "type": 0,
          "speech": [
            "Well I\u0027m only back for a limited time, so don\u0027t spend too much time mulling it over!",
            "Well think about it. But don\u0027t take too long, I\u0027m only back for a limited time only!",
            "I will wait until you decide. But don\u0027t make me wait too long, I\u0027m only back for a short while!"
          ]
        }
      ],
      "defaultResponsePlatforms": {
        "facebook": true
      }
    }
  ],
  "priority": 500000,
  "webhookUsed": false,
  "webhookForSlotFilling": false,
  "fallbackIntent": false,
  "events": []
}