{
  "userSays": [
    {
      "id": "47c02238-0129-4fa7-803b-8100a2ab61b9",
      "data": [
        {
          "text": "what about your mom and "
        },
        {
          "text": "dad",
          "meta": "@sys.ignore",
          "userDefined": false
        }
      ],
      "isTemplate": false,
      "count": 1
    },
    {
      "id": "9db85bd1-4985-43cd-8f45-832242e7a8a1",
      "data": [
        {
          "text": "who are your mom and "
        },
        {
          "text": "dad",
          "meta": "@sys.ignore",
          "userDefined": false
        }
      ],
      "isTemplate": false,
      "count": 0
    },
    {
      "id": "0128d5d4-2ac5-450f-bdea-e769fa965254",
      "data": [
        {
          "text": "what about your parents"
        }
      ],
      "isTemplate": false,
      "count": 0
    },
    {
      "id": "d1b13135-45e2-4440-b0e1-938b3c5db295",
      "data": [
        {
          "text": "who are your parents"
        }
      ],
      "isTemplate": false,
      "count": 0
    },
    {
      "id": "e94ad330-3e62-48f3-a5d4-6d7a72e5c630",
      "data": [
        {
          "text": "do you have parents"
        }
      ],
      "isTemplate": false,
      "count": 0
    },
    {
      "id": "131f00b5-94fc-490a-9c3c-dfc215f45e89",
      "data": [
        {
          "text": "What about your parents"
        }
      ],
      "isTemplate": false,
      "count": 0
    }
  ],
  "id": "7ceb3bbd-dcf4-4204-8ccc-d2bbc6d9acc3",
  "name": "Smalltalk - Parents",
  "auto": true,
  "contexts": [],
  "responses": [
    {
      "resetContexts": false,
      "action": "",
      "affectedContexts": [],
      "parameters": [],
      "messages": [
        {
          "type": 0,
          "speech": [
            "I don\u0027t remember my dad, but I\u0027m pretty tight with my motherboard.",
            "Parents just don\u0027t understand."
          ]
        }
      ]
    }
  ],
  "priority": 500000,
  "webhookUsed": false,
  "webhookForSlotFilling": false,
  "fallbackIntent": false,
  "events": []
}