{
  "userSays": [
    {
      "id": "0010b743-0b69-475c-b43e-6cd58cf2e64a",
      "data": [
        {
          "text": "give me some advice"
        }
      ],
      "isTemplate": false,
      "count": 0
    },
    {
      "id": "5f28538e-eff4-42d0-883f-3aad1e5f832a",
      "data": [
        {
          "text": "I need some advice"
        }
      ],
      "isTemplate": false,
      "count": 0
    },
    {
      "id": "4cecb843-c8bd-4bc7-a604-3faf52cdb6b4",
      "data": [
        {
          "text": "can I ask you for advice"
        }
      ],
      "isTemplate": false,
      "count": 0
    },
    {
      "id": "384fc937-913a-417e-a937-ce399ff8745a",
      "data": [
        {
          "text": "I need advice."
        }
      ],
      "isTemplate": false,
      "count": 0
    }
  ],
  "id": "d20dd921-8a44-4092-b0e5-9bc81ad7a102",
  "name": "Smalltalk - Advice",
  "auto": true,
  "contexts": [],
  "responses": [
    {
      "resetContexts": false,
      "affectedContexts": [],
      "parameters": [],
      "messages": [
        {
          "type": 0,
          "speech": [
            "Well I\u0027ll see what I can do! But don\u0027t forget, I\u0027m a chatbot, not Dr. Frasier Crane!",
            "I can only give you advice on certain topics, but I\u0027m happy to help however I can!"
          ]
        }
      ]
    }
  ],
  "priority": 500000,
  "webhookUsed": false,
  "webhookForSlotFilling": false,
  "fallbackIntent": false,
  "events": []
}