{
  "userSays": [
    {
      "id": "fe78443d-b5dd-455c-a870-f023464b6c59",
      "data": [
        {
          "text": "You born in the 90s",
          "userDefined": false
        }
      ],
      "isTemplate": false,
      "count": 1
    },
    {
      "id": "26d0bdb0-a8e7-49ab-bd33-5dde1d9f8138",
      "data": [
        {
          "text": "I was born "
        },
        {
          "text": "in 1990",
          "meta": "@sys.ignore",
          "userDefined": false
        }
      ],
      "isTemplate": false,
      "count": 0
    },
    {
      "id": "9c260711-c205-475e-84e9-407050e03f11",
      "data": [
        {
          "text": "what is your birthday"
        }
      ],
      "isTemplate": false,
      "count": 1
    },
    {
      "id": "f1fdb4c1-1959-4f2d-8551-8e8037d02fcd",
      "data": [
        {
          "text": "what\u0027s your bday"
        }
      ],
      "isTemplate": false,
      "count": 0
    },
    {
      "id": "bddaa4c6-03a4-404f-9486-ec2c7110e64d",
      "data": [
        {
          "text": "when are you born"
        }
      ],
      "isTemplate": false,
      "count": 0
    },
    {
      "id": "6c24b264-2baa-4101-be3c-b25be79300ff",
      "data": [
        {
          "text": "What is you birthday"
        }
      ],
      "isTemplate": false,
      "count": 0
    }
  ],
  "id": "c753c44e-5640-4d9d-a8ff-95072b9156c2",
  "name": "Smalltalk - Birthday",
  "auto": true,
  "contexts": [],
  "responses": [
    {
      "resetContexts": false,
      "affectedContexts": [],
      "parameters": [],
      "messages": [
        {
          "type": 0,
          "speech": "I was first released into refrigerators nationwide in 1994."
        }
      ]
    }
  ],
  "priority": 500000,
  "webhookUsed": false,
  "webhookForSlotFilling": false,
  "fallbackIntent": false,
  "events": []
}