{
  "userSays": [
    {
      "id": "1e2dd39b-3406-4b08-9891-fe97d3e3ab5f",
      "data": [
        {
          "text": "How about them cowboys, huh?"
        }
      ],
      "isTemplate": false,
      "count": 0
    },
    {
      "id": "27f29c3a-873f-4f86-90e6-fec11da54335",
      "data": [
        {
          "text": "lets play "
        },
        {
          "text": "Bowling",
          "alias": "Sports",
          "meta": "@Sports",
          "userDefined": false
        }
      ],
      "isTemplate": false,
      "count": 0
    },
    {
      "id": "328585e8-8d54-4c42-88a0-ee32bc50d83d",
      "data": [
        {
          "text": "what is your favorite "
        },
        {
          "text": "Bowling",
          "alias": "Sports",
          "meta": "@Sports",
          "userDefined": false
        },
        {
          "text": " team"
        }
      ],
      "isTemplate": false,
      "count": 0
    },
    {
      "id": "2cec9e5b-5ea5-45ac-a551-3df6b1db57e3",
      "data": [
        {
          "text": "I enjoy "
        },
        {
          "text": "Bowling",
          "alias": "Sports",
          "meta": "@Sports",
          "userDefined": false
        }
      ],
      "isTemplate": false,
      "count": 0
    },
    {
      "id": "55d8a970-171e-4628-9fda-48cb9f3c0bb4",
      "data": [
        {
          "text": "I like to play "
        },
        {
          "text": "Bowling",
          "alias": "Sports",
          "meta": "@Sports",
          "userDefined": false
        }
      ],
      "isTemplate": false,
      "count": 0
    },
    {
      "id": "afe0e2ab-2a8c-4311-9852-c57270c76936",
      "data": [
        {
          "text": "My favorite "
        },
        {
          "text": "Bowling",
          "alias": "Sports",
          "meta": "@Sports",
          "userDefined": false
        },
        {
          "text": " team is"
        }
      ],
      "isTemplate": false,
      "count": 0
    },
    {
      "id": "53775d6c-9ccb-4bf4-8032-a1a898014e81",
      "data": [
        {
          "text": "I like "
        },
        {
          "text": "Bowling",
          "alias": "Sports",
          "meta": "@Sports",
          "userDefined": false
        }
      ],
      "isTemplate": false,
      "count": 0
    }
  ],
  "id": "13b3cc16-96ab-49a2-a80e-4bfd94d3faa5",
  "name": "Sports",
  "auto": true,
  "contexts": [],
  "responses": [
    {
      "resetContexts": false,
      "affectedContexts": [],
      "parameters": [
        {
          "dataType": "@Sports",
          "name": "Sports",
          "value": "$Sports",
          "isList": false
        }
      ],
      "messages": [
        {
          "type": 0,
          "speech": [
            "I don\u0027t have arms or legs (I\u0027m a bot, remember?) so I\u0027ve never played sports. But I like to hang out at tailgates, in a cooler!",
            "Seems like you\u0027re talking about sports. Usually when I\u0027m at a game, I\u0027m more focused on the tailgate party, know what I mean?"
          ]
        }
      ]
    }
  ],
  "priority": 500000,
  "webhookUsed": false,
  "webhookForSlotFilling": false,
  "fallbackIntent": false,
  "events": []
}