{
  "userSays": [
    {
      "id": "1bf4eb51-cc82-4628-837f-deeda36fa543",
      "data": [
        {
          "text": "He\u0027s The President now"
        }
      ],
      "isTemplate": false,
      "count": 0
    },
    {
      "id": "93df4edd-bb9c-4608-b31b-19b6dac97cba",
      "data": [
        {
          "text": "trump is president"
        }
      ],
      "isTemplate": false,
      "count": 0
    },
    {
      "id": "47718edd-84c9-45cd-90ba-2a157675d5df",
      "data": [
        {
          "text": "donald",
          "meta": "@sys.ignore",
          "userDefined": false
        },
        {
          "text": " "
        },
        {
          "text": "trump",
          "meta": "@sys.ignore",
          "userDefined": false
        }
      ],
      "isTemplate": false,
      "count": 0
    }
  ],
  "id": "c67a3509-a28a-48de-a8f0-14057eb38cf1",
  "name": "the donald",
  "auto": true,
  "contexts": [],
  "responses": [
    {
      "resetContexts": false,
      "affectedContexts": [],
      "parameters": [],
      "messages": [
        {
          "type": 0,
          "platform": "facebook",
          "speech": [
            "The real estate guy? He and Ivana were a pretty big power couple. Not as big as this couple, though.",
            "Someone told me earlier that he\u0027s the President now? I remember when he was most famous for being part of a power couple, like Ross and Rachel."
          ]
        },
        {
          "type": 0,
          "speech": [
            "The real estate guy? He and Ivana were a pretty big power couple. Not as big as this couple, though.[img]https://media.giphy.com/media/JDaniKbWuKVlm/giphy.gif[/img]",
            "Someone told me earlier that he\u0027s the President now? I remember when he was most famous for being part of a power couple, like Ross and Rachel.[img]https://media.giphy.com/media/JDaniKbWuKVlm/giphy.gif[/img]"
          ]
        }
      ]
    }
  ],
  "priority": 500000,
  "webhookUsed": false,
  "webhookForSlotFilling": false,
  "fallbackIntent": false,
  "events": []
}