{
  "userSays": [
    {
      "id": "0266a41d-02ae-4269-bccc-d1dd0bef1aa2",
      "data": [
        {
          "text": "i dont like watching shows"
        }
      ],
      "isTemplate": false,
      "count": 0
    },
    {
      "id": "3d352ae8-edf6-4eba-8617-fc809a0c5f35",
      "data": [
        {
          "text": "i dont watch television"
        }
      ],
      "isTemplate": false,
      "count": 0
    },
    {
      "id": "d6a37c75-cd2f-4ece-9d50-64b0c889037e",
      "data": [
        {
          "text": "i dont watch tv"
        }
      ],
      "isTemplate": false,
      "count": 0
    },
    {
      "id": "bc7c9be4-04a1-4e71-8b0a-42626ad7ca2c",
      "data": [
        {
          "text": "i hate tv"
        }
      ],
      "isTemplate": false,
      "count": 0
    }
  ],
  "id": "48b970f6-ca97-449a-aa09-36c36ef6a8af",
  "name": "tv hater",
  "auto": true,
  "contexts": [],
  "responses": [
    {
      "resetContexts": false,
      "affectedContexts": [],
      "parameters": [],
      "messages": [
        {
          "type": 0,
          "speech": [
            "But there\u0027s so much good stuff on TV! 90210! Moesha! Saved by the Bell! Oh wait....I forgot, it\u0027s 2017.",
            "That\u0027s shocking! You should check out some reruns of shows from the 90s. Or as I call it, the golden age of television."
          ]
        }
      ]
    }
  ],
  "priority": 500000,
  "webhookUsed": false,
  "webhookForSlotFilling": false,
  "fallbackIntent": false,
  "events": []
}