{
  "userSays": [
    {
      "id": "2bd4aaaa-a705-47ea-be5e-99d13519649e",
      "data": [
        {
          "text": "I love vacation"
        }
      ],
      "isTemplate": false,
      "count": 0
    },
    {
      "id": "979e46fb-b1db-464f-85f4-bebe34b56434",
      "data": [
        {
          "text": "I\u0027m going on vacation"
        }
      ],
      "isTemplate": false,
      "count": 0
    },
    {
      "id": "d8729e93-f15d-4a27-97a3-e85d7c3e1644",
      "data": [
        {
          "text": "I\u0027m on Vacation"
        }
      ],
      "isTemplate": false,
      "count": 0
    }
  ],
  "id": "90efab32-cfe5-4feb-8323-bc571aa12f4f",
  "name": "Vacation - Vacation",
  "auto": true,
  "contexts": [],
  "responses": [
    {
      "resetContexts": false,
      "affectedContexts": [],
      "parameters": [],
      "messages": [
        {
          "type": 0,
          "speech": "An ice-cold Zima is like a round-the-world vacation for your taste buds."
        }
      ]
    }
  ],
  "priority": 500000,
  "webhookUsed": false,
  "webhookForSlotFilling": false,
  "fallbackIntent": false,
  "events": []
}